%!PS-Adobe-3.0
%%Title: 
%%Creator: PScript5.dll Version 5.2.2
%%CreationDate: 4/15/2018 17:14:51
%%For: liao
%%BoundingBox: (atend)
%%Pages: (atend)
%%Orientation: Portrait
%%PageOrder: Special
%%DocumentNeededResources: (atend)
%%DocumentSuppliedResources: (atend)
%%DocumentData: Clean7Bit
%%TargetDevice: () (52.3) 320
%%LanguageLevel: 1
%%EndComments

%%BeginDefaults
%%PageBoundingBox: 0 0 830 88
%%ViewingOrientation: 1 0 0 1
%%EndDefaults


%%BeginProlog
%%BeginResource: file Pscript_WinNT_ErrorHandler 5.0 0
/currentpacking where{pop/oldpack currentpacking def/setpacking where{pop false
setpacking}if}if/$brkpage 64 dict def $brkpage begin/prnt{dup type/stringtype
ne{=string cvs}if dup length 6 mul/tx exch def/ty 10 def currentpoint/toy exch
def/tox exch def 1 setgray newpath tox toy 2 sub moveto 0 ty rlineto tx 0
rlineto 0 ty neg rlineto closepath fill tox toy moveto 0 setgray show}bind def
/nl{currentpoint exch pop lmargin exch moveto 0 -10 rmoveto}def/=={/cp 0 def
typeprint nl}def/typeprint{dup type exec}readonly def/lmargin 72 def/rmargin 72
def/tprint{dup length cp add rmargin gt{nl/cp 0 def}if dup length cp add/cp
exch def prnt}readonly def/cvsprint{=string cvs tprint( )tprint}readonly def
/integertype{cvsprint}readonly def/realtype{cvsprint}readonly def/booleantype
{cvsprint}readonly def/operatortype{(--)tprint =string cvs tprint(-- )tprint}
readonly def/marktype{pop(-mark- )tprint}readonly def/dicttype{pop
(-dictionary- )tprint}readonly def/nulltype{pop(-null- )tprint}readonly def
/filetype{pop(-filestream- )tprint}readonly def/savetype{pop(-savelevel- )
tprint}readonly def/fonttype{pop(-fontid- )tprint}readonly def/nametype{dup
xcheck not{(/)tprint}if cvsprint}readonly def/stringtype{dup rcheck{(\()tprint
tprint(\))tprint}{pop(-string- )tprint}ifelse}readonly def/arraytype{dup rcheck
{dup xcheck{({)tprint{typeprint}forall(})tprint}{([)tprint{typeprint}forall(])
tprint}ifelse}{pop(-array- )tprint}ifelse}readonly def/packedarraytype{dup
rcheck{dup xcheck{({)tprint{typeprint}forall(})tprint}{([)tprint{typeprint}
forall(])tprint}ifelse}{pop(-packedarray- )tprint}ifelse}readonly def/courier
/Courier findfont 10 scalefont def end errordict/handleerror{systemdict begin
$error begin $brkpage begin newerror{/newerror false store vmstatus pop pop 0
ne{grestoreall}if errorname(VMerror)ne{showpage}if initgraphics courier setfont
lmargin 720 moveto errorname(VMerror)eq{userdict/ehsave known{clear userdict
/ehsave get restore 2 vmreclaim}if vmstatus exch pop exch pop PrtVMMsg}{
(ERROR: )prnt errorname prnt nl(OFFENDING COMMAND: )prnt/command load prnt
$error/ostack known{nl nl(STACK:)prnt nl nl $error/ostack get aload length{==}
repeat}if}ifelse systemdict/showpage get exec(%%[ Error: )print errorname
=print(; OffendingCommand: )print/command load =print( ]%%)= flush}if end end
end}dup 0 systemdict put dup 4 $brkpage put bind readonly put/currentpacking
where{pop/setpacking where{pop oldpack setpacking}if}if
%%EndResource
%%BeginProcSet: Pscript_Res_Emul 5.0 0
/defineresource where{pop}{userdict begin/defineresource{userdict/Resources 2
copy known{get begin}{15 dict dup begin put}ifelse exch readonly exch
currentdict 1 index known not{dup 30 dict def}if load 3 -1 roll 2 index put
end}bind readonly def/findresource{userdict/Resources get exch get exch get}
bind readonly def/resourceforall{pop pop pop pop}bind readonly def
/resourcestatus{userdict/Resources 2 copy known{get exch 2 copy known{get exch
known{0 -1 true}{false}ifelse}{pop pop pop false}ifelse}{pop pop pop pop false}
ifelse}bind readonly def end}ifelse
%%EndProcSet
userdict /Pscript_WinNT_Incr 230 dict dup begin put
%%BeginResource: file Pscript_FatalError 5.0 0
userdict begin/FatalErrorIf{{initgraphics findfont 1 index 0 eq{exch pop}{dup
length dict begin{1 index/FID ne{def}{pop pop}ifelse}forall/Encoding
{ISOLatin1Encoding}stopped{StandardEncoding}if def currentdict end
/ErrFont-Latin1 exch definefont}ifelse exch scalefont setfont counttomark 3 div
cvi{moveto show}repeat showpage quit}{cleartomark}ifelse}bind def end
%%EndResource
userdict begin/PrtVMMsg{vmstatus exch sub exch pop gt{[
(This job requires more memory than is available in this printer.)100 500
(Try one or more of the following, and then print again:)100 485
(For the output format, choose Optimize For Portability.)115 470
(In the Device Settings page, make sure the Available PostScript Memory is accurate.)
115 455(Reduce the number of fonts in the document.)115 440
(Print the document in parts.)115 425 12/Times-Roman[/GothicBBB-Medium-RKSJ-H
dup{findfont}stopped{cleartomark}{/FontName get eq{pop cleartomark[
<82B182CC83578387837582CD8CBB8DDD82B182CC8376838A8393835E82C59798977082C582AB82
E988C88FE382CC83818382838A82F0954B977682C682B582DC82B7814288C889BA82CC8A6590DD9
2E8>90 500<82CC88EA82C2814182DC82BD82CD82BB82CC916782DD8D8782ED82B982F08E7792
E882B582BD8CE381418376838A8393836782B592BC82B582C482DD82C482AD82BE82B382A28142>
90 485<A5506F73745363726970748376838D8370836583428356815B836782A982E7814183478
389815B82AA8C798CB882B782E982E682A482C98DC5934B89BB2082F0914991F082B782E98142>
90 455<A58366836F83438358834983768356838783938376838D8370836583428356815B83678
2CC209798977082C582AB82E98376838A8393835E83818382838A2082CC926C82AA90B382B582A2
82B182C682F08A6D944682B782E98142>90 440<A58368834C8385838183938367928682C58E6
7977082B382EA82C482A282E9837483488393836782CC909482F08CB882E782B78142>90 425
<A58368834C838583818393836782F095AA8A8482B582C48376838A8393836782B782E98142>90
410 10 0/GothicBBB-Medium-RKSJ-H}{cleartomark}ifelse}ifelse showpage
(%%[ PrinterError: Low Printer VM ]%%)= true FatalErrorIf}if}bind def end
version cvi 2016 ge{/VM?{pop}bind def}{/VM? userdict/PrtVMMsg get def}ifelse
105000 VM?
%%BeginResource: file Pscript_Win_Basic 5.0 0
/d/def load def/,/load load d/~/exch , d/?/ifelse , d/!/pop , d/`/begin , d/^
/index , d/@/dup , d/+/translate , d/$/roll , d/U/userdict , d/M/moveto , d/-
/rlineto , d/&/currentdict , d/:/gsave , d/;/grestore , d/F/false , d/T/true ,
d/N/newpath , d/E/end , d/Ac/arc , d/An/arcn , d/A/ashow , d/D/awidthshow , d/C
/closepath , d/V/div , d/O/eofill , d/L/fill , d/I/lineto , d/-c/curveto , d/-M
/rmoveto , d/+S/scale , d/Ji/setfont , d/Lc/setlinecap , d/Lj/setlinejoin , d
/Lw/setlinewidth , d/Lm/setmiterlimit , d/sd/setdash , d/S/show , d/LH/showpage
, d/K/stroke , d/W/widthshow , d/R/rotate , d/L2? false/languagelevel where{pop
languagelevel 2 ge{pop true}if}if d L2?{/xS/xshow , d/yS/yshow , d/zS/xyshow ,
d}if/b{bind d}bind d/bd{bind d}bind d/xd{~ d}bd/ld{, d}bd/bn/bind ld/lw/Lw ld
/lc/Lc ld/lj/Lj ld/sg/setgray ld/ADO_mxRot null d/self & d/OrgMx matrix
currentmatrix d/reinitialize{: OrgMx setmatrix[/TextInit/GraphInit/UtilsInit
counttomark{@ where{self eq}{F}?{cvx exec}{!}?}repeat cleartomark ;}b
/initialize{`{/Pscript_Win_Data where{!}{U/Pscript_Win_Data & put}?/ADO_mxRot ~
d/TextInitialised? F d reinitialize E}{U/Pscript_Win_Data 230 dict @ ` put
/ADO_mxRot ~ d/TextInitialised? F d reinitialize}?}b/terminate{!{& self eq
{exit}{E}?}loop E}b/suspend/terminate , d/resume{` Pscript_Win_Data `}b U `
/lucas 21690 d/featurebegin{countdictstack lucas[}b/featurecleanup{stopped
{cleartomark @ lucas eq{! exit}if}loop countdictstack ~ sub @ 0 gt{{E}repeat}
{!}?}b E/snap{transform 0.25 sub round 0.25 add ~ 0.25 sub round 0.25 add ~
itransform}b/dsnap{dtransform round ~ round ~ idtransform}b/nonzero_round{@ 0.5
ge{round}{@ -0.5 lt{round}{0 ge{1}{-1}?}?}?}b/nonzero_dsnap{dtransform
nonzero_round ~ nonzero_round ~ idtransform}b U<04>cvn{}put/rr{1 ^ 0 - 0 ~ -
neg 0 - C}b/irp{4 -2 $ + +S fx 4 2 $ M 1 ^ 0 - 0 ~ - neg 0 -}b/rp{4 2 $ M 1 ^ 0
- 0 ~ - neg 0 -}b/solid{[]0 sd}b/g{@ not{U/DefIf_save save put}if U/DefIf_bool
2 ^ put}b/DefIf_El{if U/DefIf_bool get not @{U/DefIf_save get restore}if}b/e
{DefIf_El !}b/UDF{L2?{undefinefont}{!}?}b/UDR{L2?{undefineresource}{! !}?}b
/freeVM{/Courier findfont[40 0 0 -40 0 0]makefont Ji 2 vmreclaim}b/hfRedefFont
{findfont @ length dict `{1 ^/FID ne{d}{! !}?}forall & E @ ` ~{/CharStrings 1
dict `/.notdef 0 d & E d}if/Encoding 256 array 0 1 255{1 ^ ~/.notdef put}for d
E definefont !}bind d/hfMkCIDFont{/CIDFont findresource @ length 2 add dict `{1
^ @/FID eq ~ @/XUID eq ~/UIDBase eq or or{! !}{d}?}forall/CDevProc ~ d/Metrics2
16 dict d/CIDFontName 1 ^ d & E 1 ^ ~/CIDFont defineresource ![~]composefont !}
bind d
%%EndResource
%%BeginResource: file Pscript_Win_Utils_L1 5.0 0
/rf{N rp L}b/fx{1 1 dtransform @ 0 ge{1 sub 1}{1 add -0.25}? 3 -1 $ @ 0 ge{1
sub 1}{1 add -0.25}? 3 1 $ 4 1 $ idtransform 4 -2 $ idtransform}b/BZ{4 -2 $
snap + +S fx rf}b/rs{N rp C K}b/rc{N rp clip N}b/UtilsInit{}b/setcolorspace{!}b
/scol{[/setgray/setrgbcolor/setcolor/setcmykcolor/setcolor/setgray]~ get cvx
exec}b/colspRefresh{}b/AddFontInfoBegin{/FontInfo 8 dict @ `}bind d/AddFontInfo
{/GlyphNames2Unicode 16 dict d/GlyphNames2HostCode 16 dict d}bind d
/AddFontInfoEnd{E d}bind d
%%EndResource
end
%%EndProlog

%%BeginSetup
statusdict begin (%%[ ProductName: ) print product print ( ]%%)= flush end
[ 1 0 0 1 0 0 ] false Pscript_WinNT_Incr dup /initialize get exec
featurebegin{
%%BeginNonPPDFeature: JobTimeout 0
0 /languagelevel where{pop languagelevel}{1}ifelse 2 ge{1 dict dup/JobTimeout  4 -1 roll put setuserparams}{statusdict/setjobtimeout get exec}ifelse
%%EndNonPPDFeature
}featurecleanup

featurebegin{
%%BeginNonPPDFeature: WaitTimeout 300
300 /languagelevel where{pop languagelevel}{1}ifelse 2 ge{1 dict dup/WaitTimeout 4 -1 roll put setuserparams}{statusdict/waittimeout 3 -1 roll put}ifelse
%%EndNonPPDFeature
}featurecleanup

featurebegin{
%%BeginFeature: *Resolution 600dpi

%%EndFeature
}featurecleanup
featurebegin{
%%BeginFeature: *CustomPageSize
 
830 88 0 0 1 exch pop statusdict /setpageparams get exec
%%EndFeature
}featurecleanup
1 setlinecap 1 setlinejoin
/mysetup [ 72 600 V 0 0 -72 600 V 0 87.87401 ] def 
%%EndSetup

userdict begin /VMsave save def end
%%Page: 1 1
%%PageBoundingBox: 0 0 830 88
%%EndPageComments
%%BeginPageSetup
/DeviceRGB dup setcolorspace /colspABC exch def
mysetup concat colspRefresh
%%EndPageSetup

Pscript_WinNT_Incr begin
%%BeginResource: file Pscript_Win_GdiObject 5.0 0
/SavedCTM null d/CTMsave{/SavedCTM SavedCTM currentmatrix d}b/CTMrestore
{SavedCTM setmatrix}b/mp null d/ADO_mxRot null d/GDIHMatrix null d
/GDIHPatternDict 22 dict d GDIHPatternDict `/PatternType 1 d/PaintType 2 d/Reps
L2?{1}{5}? d/XStep 8 Reps mul d/YStep XStep d/BBox[0 0 XStep YStep]d/TilingType
1 d/PaintProc{` 1 Lw[]0 sd PaintData , exec E}b/FGnd null d/BGnd null d
/HS_Horizontal{horiz}b/HS_Vertical{vert}b/HS_FDiagonal{fdiag}b/HS_BDiagonal
{biag}b/HS_Cross{horiz vert}b/HS_DiagCross{fdiag biag}b/MaxXYStep XStep YStep
gt{XStep}{YStep}? d/horiz{Reps{0 4 M XStep 0 - 0 8 +}repeat 0 -8 Reps mul + K}b
/vert{Reps{4 0 M 0 YStep - 8 0 +}repeat 0 -8 Reps mul + K}b/biag{Reps{0 0 M
MaxXYStep @ - 0 YStep neg M MaxXYStep @ - 0 8 +}repeat 0 -8 Reps mul + 0 YStep
M 8 8 - K}b/fdiag{Reps{0 0 M MaxXYStep @ neg - 0 YStep M MaxXYStep @ neg - 0 8
+}repeat 0 -8 Reps mul + MaxXYStep @ M 8 -8 - K}b E/makehatch{4 -2 $/yOrg ~ d
/xOrg ~ d GDIHPatternDict/PaintData 3 -1 $ put CTMsave GDIHMatrix setmatrix
GDIHPatternDict matrix xOrg yOrg + mp CTMrestore ~ U ~ 2 ^ put}b/h0{/h0
/HS_Horizontal makehatch}b/h1{/h1/HS_Vertical makehatch}b/h2{/h2/HS_FDiagonal
makehatch}b/h3{/h3/HS_BDiagonal makehatch}b/h4{/h4/HS_Cross makehatch}b/h5{/h5
/HS_DiagCross makehatch}b/GDIBWPatternMx null d/pfprep{save 8 1 $
/PatternOfTheDay 8 1 $ GDIBWPatternDict `/yOrg ~ d/xOrg ~ d/PaintData ~ d/yExt
~ d/Width ~ d/BGnd ~ d/FGnd ~ d/Height yExt RepsV mul d/mx[Width 0 0 Height 0
0]d E build_pattern ~ !}b/pfbf{/fEOFill ~ d pfprep hbf fEOFill{O}{L}? restore}b
/GraphInit{GDIHMatrix null eq{/SavedCTM matrix d : ADO_mxRot concat 0 0 snap +
: 0.48 @ GDIHPatternDict ` YStep mul ~ XStep mul ~ nonzero_dsnap YStep V ~
XStep V ~ E +S/GDIHMatrix matrix currentmatrix readonly d ; : 0.24 -0.24 +S
GDIBWPatternDict ` Width Height E nonzero_dsnap +S/GDIBWPatternMx matrix
currentmatrix readonly d ; ;}if}b
%%EndResource
%%BeginResource: file Pscript_Win_GdiObject_L1 5.0 0
/GDIBWPatternDict 25 dict @ `/PatternType 1 d/PaintType 2 d/RepsV 6 d/RepsH 5 d
/BBox[0 0 RepsH 1]d/TilingType 1 d/XStep 1 d/YStep 1 d/Height 8 RepsV mul d
/Width 8 d/mx[Width 0 0 Height neg 0 Height]d/FGnd null d/BGnd null d
/SetBGndFGnd{}b/PaintProc{` SetBGndFGnd RepsH{Width Height F mx PaintData
imagemask Width 0 +}repeat E}b E d/GDIpattfill{@ ` BGnd null ne PaintType 2 eq
and{: BGnd aload ! scol fEOFill{O}{L}? ; FGnd aload ! U/iCol 2 ^ put @ 0 eq{!
2}{@ 1 eq ~ 2 eq or{4}{5}?}? -1 $}if E @ patterncalc : 4 ^/PaintType get 2 eq
{iCol 0 eq{6 -1 $}if iCol 1 eq iCol 2 eq or{8 -3 $}if iCol 3 eq iCol 4 eq or{9
-4 $}if iCol scol}if fEOFill{eoclip}{clip}? N patternfill ; N}b/hbf
{GDIpattfill}b/hfMain{/fEOFill ~ d ~/iCol ~ d GDIpattfill}b/hf{: hfMain ;}b
/mpstr 1 string d/mp{~ @ length 12 add dict copy `/PatternCTM matrix
currentmatrix d/PatternMatrix ~ d/PatWidth XStep mpstr length mul d/PatHeight
YStep d/FontType 3 d/Encoding 256 array d 3 string 0 1 255{Encoding ~ @ 3 ^ cvs
cvn put}for !/FontMatrix matrix d/FontBBox BBox d/BuildChar{! @ ` XStep 0
FontBBox aload ! setcachedevice/PaintProc , E : exec ;}b & E ~ @ 3 -1 $
definefont}b/build_pattern{: GDIBWPatternDict ` Width Height E dsnap +S
/GDIBWPatternMx matrix currentmatrix d ; CTMsave GDIBWPatternMx setmatrix
GDIBWPatternDict @ ` xOrg yOrg E matrix + mp CTMrestore}b/patterncalc{` :
PatternCTM setmatrix PatternMatrix concat BBox aload ! ! ! + pathbbox ;
PatHeight V ceiling 4 1 $ PatWidth V ceiling 4 1 $ PatHeight V floor 4 1 $
PatWidth V floor 4 1 $ 2 ^ sub cvi abs ~ 3 ^ sub cvi abs ~ 4 2 $ PatHeight mul
~ PatWidth mul ~ E}b/patternfill{5 -1 $ @ ` Ji PatternCTM setmatrix
PatternMatrix concat 0 2 ^ 2 ^ M 0 1 mpstr length 1 sub{1 ^ mpstr 3 1 $ put}for
! 2 ^{currentpoint 5 ^{mpstr S}repeat YStep add M}repeat ! ! ! ! E}b/pbf{: 14
dict `/fGray ~ d/fEOFill ~ d/yOrg ~ d/xOrg ~ d/PaintData ~ d/OutputBPP ~ d
/Height ~ d/Width ~ d/mx xOrg yOrg matrix + d fGray{/PaintProc{` Width Height
OutputBPP mx PaintData image E}b}{/PaintProc{` Width Height 8 mx PaintData F
OutputBPP 8 idiv colorimage E}b}? pathbbox fEOFill{eoclip}{clip}?/Top ~ d/Right
~ d/Bottom ~ d/Left ~ d Top Height neg Bottom 1 sub{Left Width Right 1 sub{1 ^
2 copy + & PaintProc neg ~ neg ~ +}bind for !}bind for E ;}b
%%EndResource
end reinitialize
N 3 2 M 3 362 I 365 362 I 365 2 I 3 2 I C 
0.918 0.938 0.969 1 scol  O N 365 2 M 365 362 I 727 362 I 727 2 I 365 2 I C 
 O N 3 362 M 3 724 I 365 724 I 365 362 I 3 362 I C 
 O N 365 362 M 365 724 I 727 724 I 727 362 I 365 362 I C 
 O 0 0 0 1 scol 1 Lj 0 Lc 27 Lw solid : 359 0 13 732 rc N 365 -3 M 365 728 I : [ 0.344 0 0 0.344 0 0 ] concat K 
; ; : 0 357 739 13 rc N -2 362 M 731 362 I : [ 0.344 0 0 0.344 0 0 ] concat K 
; ; : 0 0 11 732 rc N 3 -3 M 3 728 I : [ 0.344 0 0 0.344 0 0 ] concat K 
; ; : 721 0 13 732 rc N 727 -3 M 727 728 I : [ 0.344 0 0 0.344 0 0 ] concat K 
; ; : 0 0 739 9 rc N -2 2 M 731 2 I : [ 0.344 0 0 0.344 0 0 ] concat K 
; ; : 0 718 739 13 rc N -2 724 M 731 724 I : [ 0.344 0 0 0.344 0 0 ] concat K 
; ; N 104 203 M 104 152 145 110 195 110 -c 245 110 286 152 286 203 -c 286 255 245 297 195 297 -c 145 297 104 255 104 203 -c C 
1 0 0 1 scol  O 0 Lj 8 Lm 80 Lw : 0 0 406 417 rc N 104 203 M 104 152 145 110 195 110 -c 245 110 286 152 286 203 -c 286 255 245 297 195 297 -c 145 297 104 255 104 203 -c : [ 0.344 0 0 0.344 0 0 ] concat K 
; ; N 468 203 M 468 152 509 110 559 110 -c 609 110 649 152 649 203 -c 649 255 609 297 559 297 -c 509 297 468 255 468 203 -c C 
 O : 350 0 419 417 rc N 468 203 M 468 152 509 110 559 110 -c 609 110 649 152 649 203 -c 649 255 609 297 559 297 -c 509 297 468 255 468 203 -c : [ 0.344 0 0 0.344 0 0 ] concat K 
; ; N 104 550 M 104 498 145 456 195 456 -c 245 456 286 498 286 550 -c 286 602 245 644 195 644 -c 145 644 104 602 104 550 -c C 
 O : 0 338 406 394 rc N 104 550 M 104 498 145 456 195 456 -c 245 456 286 498 286 550 -c 286 602 245 644 195 644 -c 145 644 104 602 104 550 -c : [ 0.344 0 0 0.344 0 0 ] concat K 
; ; N 468 550 M 468 498 509 456 559 456 -c 609 456 649 498 649 550 -c 649 602 609 644 559 644 -c 509 644 468 602 468 550 -c C 
 O : 350 338 419 394 rc N 468 550 M 468 498 509 456 559 456 -c 609 456 649 498 649 550 -c 649 602 609 644 559 644 -c 509 644 468 602 468 550 -c : [ 0.344 0 0 0.344 0 0 ] concat K 
; ; N 1105 2 M 1105 362 I 1467 362 I 1467 2 I 1105 2 I C 
0.918 0.938 0.969 1 scol  O N 1467 2 M 1467 362 I 1829 362 I 1829 2 I 1467 2 I C 
 O N 1829 2 M 1829 362 I 2190 362 I 2190 2 I 1829 2 I C 
 O N 2190 2 M 2190 362 I 2552 362 I 2552 2 I 2190 2 I C 
 O N 1105 362 M 1105 724 I 1467 724 I 1467 362 I 1105 362 I C 
 O N 1467 362 M 1467 724 I 1829 724 I 1829 362 I 1467 362 I C 
 O N 1829 362 M 1829 724 I 2190 724 I 2190 362 I 1829 362 I C 
 O N 2190 362 M 2190 724 I 2552 724 I 2552 362 I 2190 362 I C 
 O 0 0 0 1 scol 1 Lj 10 Lm 27 Lw : 1461 0 14 732 rc N 1467 -3 M 1467 728 I : [ 0.344 0 0 0.344 0 0 ] concat K 
; ; : 1823 0 13 732 rc N 1829 -3 M 1829 728 I : [ 0.344 0 0 0.344 0 0 ] concat K 
; ; : 2185 0 13 732 rc N 2190 -3 M 2190 728 I : [ 0.344 0 0 0.344 0 0 ] concat K 
; ; N 1101 362 M 2557 362 I : [ 0.344 0 0 0.344 0 0 ] concat K 
; : 1100 0 13 732 rc N 1105 -3 M 1105 728 I : [ 0.344 0 0 0.344 0 0 ] concat K 
; ; : 2546 0 14 732 rc N 2552 -3 M 2552 728 I : [ 0.344 0 0 0.344 0 0 ] concat K 
; ; : 1095 0 1469 9 rc N 1101 2 M 2557 2 I : [ 0.344 0 0 0.344 0 0 ] concat K 
; ; N 1101 724 M 2557 724 I : [ 0.344 0 0 0.344 0 0 ] concat K 
; N 1206 181 M 1206 130 1247 88 1297 88 -c 1347 88 1387 130 1387 181 -c 1387 233 1347 275 1297 275 -c 1247 275 1206 233 1206 181 -c C 
1 0 0 1 scol  O 0 Lj 8 Lm 80 Lw : 1088 0 419 395 rc N 1206 181 M 1206 130 1247 88 1297 88 -c 1347 88 1387 130 1387 181 -c 1387 233 1347 275 1297 275 -c 1247 275 1206 233 1206 181 -c : [ 0.344 0 0 0.344 0 0 ] concat K 
; ; N 1569 181 M 1569 130 1610 88 1660 88 -c 1710 88 1751 130 1751 181 -c 1751 233 1710 275 1660 275 -c 1610 275 1569 233 1569 181 -c C 
 O : 1451 0 420 395 rc N 1569 181 M 1569 130 1610 88 1660 88 -c 1710 88 1751 130 1751 181 -c 1751 233 1710 275 1660 275 -c 1610 275 1569 233 1569 181 -c : [ 0.344 0 0 0.344 0 0 ] concat K 
; ; N 1927 181 M 1927 130 1968 88 2018 88 -c 2068 88 2109 130 2109 181 -c 2109 233 2068 275 2018 275 -c 1968 275 1927 233 1927 181 -c C 
 O : 1809 0 420 395 rc N 1927 181 M 1927 130 1968 88 2018 88 -c 2068 88 2109 130 2109 181 -c 2109 233 2068 275 2018 275 -c 1968 275 1927 233 1927 181 -c : [ 0.344 0 0 0.344 0 0 ] concat K 
; ; N 2291 181 M 2291 130 2332 88 2382 88 -c 2432 88 2472 130 2472 181 -c 2472 233 2432 275 2382 275 -c 2332 275 2291 233 2291 181 -c C 
 O : 2173 0 419 395 rc N 2291 181 M 2291 130 2332 88 2382 88 -c 2432 88 2472 130 2472 181 -c 2472 233 2432 275 2382 275 -c 2332 275 2291 233 2291 181 -c : [ 0.344 0 0 0.344 0 0 ] concat K 
; ; N 1206 531 M 1206 478 1247 434 1297 434 -c 1347 434 1387 478 1387 531 -c 1387 584 1347 627 1297 627 -c 1247 627 1206 584 1206 531 -c C 
 O : 1088 316 419 416 rc N 1206 531 M 1206 478 1247 434 1297 434 -c 1347 434 1387 478 1387 531 -c 1387 584 1347 627 1297 627 -c 1247 627 1206 584 1206 531 -c : [ 0.344 0 0 0.344 0 0 ] concat K 
; ; N 1569 531 M 1569 478 1610 434 1660 434 -c 1710 434 1751 478 1751 531 -c 1751 584 1710 627 1660 627 -c 1610 627 1569 584 1569 531 -c C 
 O : 1451 316 420 416 rc N 1569 531 M 1569 478 1610 434 1660 434 -c 1710 434 1751 478 1751 531 -c 1751 584 1710 627 1660 627 -c 1610 627 1569 584 1569 531 -c : [ 0.344 0 0 0.344 0 0 ] concat K 
; ; N 1927 531 M 1927 478 1968 434 2018 434 -c 2068 434 2109 478 2109 531 -c 2109 584 2068 627 2018 627 -c 1968 627 1927 584 1927 531 -c C 
 O : 1809 316 420 416 rc N 1927 531 M 1927 478 1968 434 2018 434 -c 2068 434 2109 478 2109 531 -c 2109 584 2068 627 2018 627 -c 1968 627 1927 584 1927 531 -c : [ 0.344 0 0 0.344 0 0 ] concat K 
; ; N 2291 531 M 2291 478 2332 434 2382 434 -c 2432 434 2472 478 2472 531 -c 2472 584 2432 627 2382 627 -c 2332 627 2291 584 2291 531 -c C 
 O : 2173 316 419 416 rc N 2291 531 M 2291 478 2332 434 2382 434 -c 2432 434 2472 478 2472 531 -c 2472 584 2432 627 2382 627 -c 2332 627 2291 584 2291 531 -c : [ 0.344 0 0 0.344 0 0 ] concat K 
; ; N 2931 2 M 2931 362 I 3293 362 I 3293 2 I 2931 2 I C 
0.918 0.938 0.969 1 scol  O N 3293 2 M 3293 362 I 3654 362 I 3654 2 I 3293 2 I C 
 O N 2931 362 M 2931 724 I 3293 724 I 3293 362 I 2931 362 I C 
 O N 3293 362 M 3293 724 I 3654 724 I 3654 362 I 3293 362 I C 
 O 0 0 0 1 scol 1 Lj 10 Lm 27 Lw : 3287 0 13 732 rc N 3293 -3 M 3293 728 I : [ 0.344 0 0 0.344 0 0 ] concat K 
; ; N 2926 362 M 3659 362 I : [ 0.344 0 0 0.344 0 0 ] concat K 
; : 2925 0 13 732 rc N 2931 -3 M 2931 728 I : [ 0.344 0 0 0.344 0 0 ] concat K 
; ; : 3649 0 13 732 rc N 3654 -3 M 3654 728 I : [ 0.344 0 0 0.344 0 0 ] concat K 
; ; : 2920 0 747 9 rc N 2926 2 M 3659 2 I : [ 0.344 0 0 0.344 0 0 ] concat K 
; ; N 2926 724 M 3659 724 I : [ 0.344 0 0 0.344 0 0 ] concat K 
; N 3034 203 M 3034 152 3075 110 3125 110 -c 3175 110 3216 152 3216 203 -c 3216 255 3175 297 3125 297 -c 3075 297 3034 255 3034 203 -c C 
1 0 0 1 scol  O 0 Lj 8 Lm 80 Lw : 2916 0 420 417 rc N 3034 203 M 3034 152 3075 110 3125 110 -c 3175 110 3216 152 3216 203 -c 3216 255 3175 297 3125 297 -c 3075 297 3034 255 3034 203 -c : [ 0.344 0 0 0.344 0 0 ] concat K 
; ; N 3392 203 M 3392 152 3433 110 3483 110 -c 3533 110 3574 152 3574 203 -c 3574 255 3533 297 3483 297 -c 3433 297 3392 255 3392 203 -c C 
 O : 3274 0 420 417 rc N 3392 203 M 3392 152 3433 110 3483 110 -c 3533 110 3574 152 3574 203 -c 3574 255 3533 297 3483 297 -c 3433 297 3392 255 3392 203 -c : [ 0.344 0 0 0.344 0 0 ] concat K 
; ; N 4006 2 M 4006 362 I 4368 362 I 4368 2 I 4006 2 I C 
0.918 0.938 0.969 1 scol  O N 4368 2 M 4368 362 I 4730 362 I 4730 2 I 4368 2 I C 
 O N 4730 2 M 4730 362 I 5091 362 I 5091 2 I 4730 2 I C 
 O N 5091 2 M 5091 362 I 5453 362 I 5453 2 I 5091 2 I C 
 O N 5453 2 M 5453 362 I 5815 362 I 5815 2 I 5453 2 I C 
 O N 5815 2 M 5815 362 I 6177 362 I 6177 2 I 5815 2 I C 
 O N 6177 2 M 6177 362 I 6538 362 I 6538 2 I 6177 2 I C 
 O N 6538 2 M 6538 362 I 6900 362 I 6900 2 I 6538 2 I C 
 O N 4006 362 M 4006 724 I 4368 724 I 4368 362 I 4006 362 I C 
 O N 4368 362 M 4368 724 I 4730 724 I 4730 362 I 4368 362 I C 
 O N 4730 362 M 4730 724 I 5091 724 I 5091 362 I 4730 362 I C 
 O N 5091 362 M 5091 724 I 5453 724 I 5453 362 I 5091 362 I C 
 O N 5453 362 M 5453 724 I 5815 724 I 5815 362 I 5453 362 I C 
 O N 5815 362 M 5815 724 I 6177 724 I 6177 362 I 5815 362 I C 
 O N 6177 362 M 6177 724 I 6538 724 I 6538 362 I 6177 362 I C 
 O N 6538 362 M 6538 724 I 6900 724 I 6900 362 I 6538 362 I C 
 O 0 0 0 1 scol 1 Lj 10 Lm 27 Lw : 4362 0 14 732 rc N 4368 -3 M 4368 728 I : [ 0.344 0 0 0.344 0 0 ] concat K 
; ; : 4724 0 13 732 rc N 4730 -3 M 4730 728 I : [ 0.344 0 0 0.344 0 0 ] concat K 
; ; : 5086 0 13 732 rc N 5091 -3 M 5091 728 I : [ 0.344 0 0 0.344 0 0 ] concat K 
; ; : 5447 0 14 732 rc N 5453 -3 M 5453 728 I : [ 0.344 0 0 0.344 0 0 ] concat K 
; ; : 5809 0 13 732 rc N 5815 -3 M 5815 728 I : [ 0.344 0 0 0.344 0 0 ] concat K 
; ; : 6171 0 13 732 rc N 6177 -3 M 6177 728 I : [ 0.344 0 0 0.344 0 0 ] concat K 
; ; : 6532 0 14 732 rc N 6538 -3 M 6538 728 I : [ 0.344 0 0 0.344 0 0 ] concat K 
; ; N 4002 362 M 6904 362 I : [ 0.344 0 0 0.344 0 0 ] concat K 
; : 4001 0 13 732 rc N 4006 -3 M 4006 728 I : [ 0.344 0 0 0.344 0 0 ] concat K 
; ; : 6894 0 13 732 rc N 6900 -3 M 6900 728 I : [ 0.344 0 0 0.344 0 0 ] concat K 
; ; : 3996 0 2916 9 rc N 4002 2 M 6904 2 I : [ 0.344 0 0 0.344 0 0 ] concat K 
; ; N 4002 724 M 6904 724 I : [ 0.344 0 0 0.344 0 0 ] concat K 
; N 4108 181 M 4108 130 4149 88 4199 88 -c 4249 88 4290 130 4290 181 -c 4290 233 4249 275 4199 275 -c 4149 275 4108 233 4108 181 -c C 
1 0 0 1 scol  O 0 Lj 8 Lm 80 Lw : 3990 0 420 395 rc N 4108 181 M 4108 130 4149 88 4199 88 -c 4249 88 4290 130 4290 181 -c 4290 233 4249 275 4199 275 -c 4149 275 4108 233 4108 181 -c : [ 0.344 0 0 0.344 0 0 ] concat K 
; ; N 4472 181 M 4472 130 4513 88 4563 88 -c 4613 88 4653 130 4653 181 -c 4653 233 4613 275 4563 275 -c 4513 275 4472 233 4472 181 -c C 
 O : 4354 0 419 395 rc N 4472 181 M 4472 130 4513 88 4563 88 -c 4613 88 4653 130 4653 181 -c 4653 233 4613 275 4563 275 -c 4513 275 4472 233 4472 181 -c : [ 0.344 0 0 0.344 0 0 ] concat K 
; ; N 4830 181 M 4830 130 4871 88 4921 88 -c 4971 88 5011 130 5011 181 -c 5011 233 4971 275 4921 275 -c 4871 275 4830 233 4830 181 -c C 
 O : 4712 0 419 395 rc N 4830 181 M 4830 130 4871 88 4921 88 -c 4971 88 5011 130 5011 181 -c 5011 233 4971 275 4921 275 -c 4871 275 4830 233 4830 181 -c : [ 0.344 0 0 0.344 0 0 ] concat K 
; ; N 5193 181 M 5193 130 5234 88 5284 88 -c 5334 88 5375 130 5375 181 -c 5375 233 5334 275 5284 275 -c 5234 275 5193 233 5193 181 -c C 
 O : 5075 0 420 395 rc N 5193 181 M 5193 130 5234 88 5284 88 -c 5334 88 5375 130 5375 181 -c 5375 233 5334 275 5284 275 -c 5234 275 5193 233 5193 181 -c : [ 0.344 0 0 0.344 0 0 ] concat K 
; ; N 5551 181 M 5551 130 5592 88 5642 88 -c 5692 88 5733 130 5733 181 -c 5733 233 5692 275 5642 275 -c 5592 275 5551 233 5551 181 -c C 
 O : 5433 0 420 395 rc N 5551 181 M 5551 130 5592 88 5642 88 -c 5692 88 5733 130 5733 181 -c 5733 233 5692 275 5642 275 -c 5592 275 5551 233 5551 181 -c : [ 0.344 0 0 0.344 0 0 ] concat K 
; ; N 5915 181 M 5915 130 5956 88 6006 88 -c 6056 88 6096 130 6096 181 -c 6096 233 6056 275 6006 275 -c 5956 275 5915 233 5915 181 -c C 
 O : 5797 0 419 395 rc N 5915 181 M 5915 130 5956 88 6006 88 -c 6056 88 6096 130 6096 181 -c 6096 233 6056 275 6006 275 -c 5956 275 5915 233 5915 181 -c : [ 0.344 0 0 0.344 0 0 ] concat K 
; ; N 6273 181 M 6273 130 6314 88 6364 88 -c 6414 88 6454 130 6454 181 -c 6454 233 6414 275 6364 275 -c 6314 275 6273 233 6273 181 -c C 
 O : 6155 0 419 395 rc N 6273 181 M 6273 130 6314 88 6364 88 -c 6414 88 6454 130 6454 181 -c 6454 233 6414 275 6364 275 -c 6314 275 6273 233 6273 181 -c : [ 0.344 0 0 0.344 0 0 ] concat K 
; ; N 6636 181 M 6636 130 6677 88 6727 88 -c 6777 88 6818 130 6818 181 -c 6818 233 6777 275 6727 275 -c 6677 275 6636 233 6636 181 -c C 
 O : 6518 0 396 395 rc N 6636 181 M 6636 130 6677 88 6727 88 -c 6777 88 6818 130 6818 181 -c 6818 233 6777 275 6727 275 -c 6677 275 6636 233 6636 181 -c : [ 0.344 0 0 0.344 0 0 ] concat K 
; ; N 4108 528 M 4108 476 4149 434 4199 434 -c 4249 434 4290 476 4290 528 -c 4290 580 4249 622 4199 622 -c 4149 622 4108 580 4108 528 -c C 
 O : 3990 316 420 416 rc N 4108 528 M 4108 476 4149 434 4199 434 -c 4249 434 4290 476 4290 528 -c 4290 580 4249 622 4199 622 -c 4149 622 4108 580 4108 528 -c : [ 0.344 0 0 0.344 0 0 ] concat K 
; ; N 4472 528 M 4472 476 4513 434 4563 434 -c 4613 434 4653 476 4653 528 -c 4653 580 4613 622 4563 622 -c 4513 622 4472 580 4472 528 -c C 
 O : 4354 316 419 416 rc N 4472 528 M 4472 476 4513 434 4563 434 -c 4613 434 4653 476 4653 528 -c 4653 580 4613 622 4563 622 -c 4513 622 4472 580 4472 528 -c : [ 0.344 0 0 0.344 0 0 ] concat K 
; ; N 4830 528 M 4830 476 4871 434 4921 434 -c 4971 434 5011 476 5011 528 -c 5011 580 4971 622 4921 622 -c 4871 622 4830 580 4830 528 -c C 
 O : 4712 316 419 416 rc N 4830 528 M 4830 476 4871 434 4921 434 -c 4971 434 5011 476 5011 528 -c 5011 580 4971 622 4921 622 -c 4871 622 4830 580 4830 528 -c : [ 0.344 0 0 0.344 0 0 ] concat K 
; ; N 5193 528 M 5193 476 5234 434 5284 434 -c 5334 434 5375 476 5375 528 -c 5375 580 5334 622 5284 622 -c 5234 622 5193 580 5193 528 -c C 
 O : 5075 316 420 416 rc N 5193 528 M 5193 476 5234 434 5284 434 -c 5334 434 5375 476 5375 528 -c 5375 580 5334 622 5284 622 -c 5234 622 5193 580 5193 528 -c : [ 0.344 0 0 0.344 0 0 ] concat K 
; ; N 5551 528 M 5551 476 5592 434 5642 434 -c 5692 434 5733 476 5733 528 -c 5733 580 5692 622 5642 622 -c 5592 622 5551 580 5551 528 -c C 
 O : 5433 316 420 416 rc N 5551 528 M 5551 476 5592 434 5642 434 -c 5692 434 5733 476 5733 528 -c 5733 580 5692 622 5642 622 -c 5592 622 5551 580 5551 528 -c : [ 0.344 0 0 0.344 0 0 ] concat K 
; ; N 5915 528 M 5915 476 5956 434 6006 434 -c 6056 434 6096 476 6096 528 -c 6096 580 6056 622 6006 622 -c 5956 622 5915 580 5915 528 -c C 
 O : 5797 316 419 416 rc N 5915 528 M 5915 476 5956 434 6006 434 -c 6056 434 6096 476 6096 528 -c 6096 580 6056 622 6006 622 -c 5956 622 5915 580 5915 528 -c : [ 0.344 0 0 0.344 0 0 ] concat K 
; ; N 6273 528 M 6273 476 6314 434 6364 434 -c 6414 434 6454 476 6454 528 -c 6454 580 6414 622 6364 622 -c 6314 622 6273 580 6273 528 -c C 
 O : 6155 316 419 416 rc N 6273 528 M 6273 476 6314 434 6364 434 -c 6414 434 6454 476 6454 528 -c 6454 580 6414 622 6364 622 -c 6314 622 6273 580 6273 528 -c : [ 0.344 0 0 0.344 0 0 ] concat K 
; ; N 6636 528 M 6636 476 6677 434 6727 434 -c 6777 434 6818 476 6818 528 -c 6818 580 6777 622 6727 622 -c 6677 622 6636 580 6636 528 -c C 
 O : 6518 316 396 416 rc N 6636 528 M 6636 476 6677 434 6727 434 -c 6777 434 6818 476 6818 528 -c 6818 580 6777 622 6727 622 -c 6677 622 6636 580 6636 528 -c : [ 0.344 0 0 0.344 0 0 ] concat K 
; ; LH
(%%[Page: 1]%%) = 
%%PageTrailer

%%Trailer
%%BoundingBox: 0 0 830 88
%%DocumentNeededResources: 
%%DocumentSuppliedResources: 
%%+ procset Pscript_WinNT_ErrorHandler 5.0 0
%%+ procset Pscript_FatalError 5.0 0
%%+ procset Pscript_Win_Basic 5.0 0
%%+ procset Pscript_Win_Utils_L1 5.0 0
%%+ procset Pscript_Win_GdiObject 5.0 0
%%+ procset Pscript_Win_GdiObject_L1 5.0 0
Pscript_WinNT_Incr dup /terminate get exec
VMsave restore
%%Pages: 1
(%%[LastPage]%%) = 
%%EOF
