%!PS-Adobe-3.0
%%Title: 
%%Creator: PScript5.dll Version 5.2.2
%%CreationDate: 4/15/2018 17:14:30
%%For: liao
%%BoundingBox: (atend)
%%Pages: (atend)
%%Orientation: Portrait
%%PageOrder: Special
%%DocumentNeededResources: (atend)
%%DocumentSuppliedResources: (atend)
%%DocumentData: Clean7Bit
%%TargetDevice: () (52.3) 320
%%LanguageLevel: 1
%%EndComments

%%BeginDefaults
%%PageBoundingBox: 0 0 529 89
%%ViewingOrientation: 1 0 0 1
%%EndDefaults


%%BeginProlog
%%BeginResource: file Pscript_WinNT_ErrorHandler 5.0 0
/currentpacking where{pop/oldpack currentpacking def/setpacking where{pop false
setpacking}if}if/$brkpage 64 dict def $brkpage begin/prnt{dup type/stringtype
ne{=string cvs}if dup length 6 mul/tx exch def/ty 10 def currentpoint/toy exch
def/tox exch def 1 setgray newpath tox toy 2 sub moveto 0 ty rlineto tx 0
rlineto 0 ty neg rlineto closepath fill tox toy moveto 0 setgray show}bind def
/nl{currentpoint exch pop lmargin exch moveto 0 -10 rmoveto}def/=={/cp 0 def
typeprint nl}def/typeprint{dup type exec}readonly def/lmargin 72 def/rmargin 72
def/tprint{dup length cp add rmargin gt{nl/cp 0 def}if dup length cp add/cp
exch def prnt}readonly def/cvsprint{=string cvs tprint( )tprint}readonly def
/integertype{cvsprint}readonly def/realtype{cvsprint}readonly def/booleantype
{cvsprint}readonly def/operatortype{(--)tprint =string cvs tprint(-- )tprint}
readonly def/marktype{pop(-mark- )tprint}readonly def/dicttype{pop
(-dictionary- )tprint}readonly def/nulltype{pop(-null- )tprint}readonly def
/filetype{pop(-filestream- )tprint}readonly def/savetype{pop(-savelevel- )
tprint}readonly def/fonttype{pop(-fontid- )tprint}readonly def/nametype{dup
xcheck not{(/)tprint}if cvsprint}readonly def/stringtype{dup rcheck{(\()tprint
tprint(\))tprint}{pop(-string- )tprint}ifelse}readonly def/arraytype{dup rcheck
{dup xcheck{({)tprint{typeprint}forall(})tprint}{([)tprint{typeprint}forall(])
tprint}ifelse}{pop(-array- )tprint}ifelse}readonly def/packedarraytype{dup
rcheck{dup xcheck{({)tprint{typeprint}forall(})tprint}{([)tprint{typeprint}
forall(])tprint}ifelse}{pop(-packedarray- )tprint}ifelse}readonly def/courier
/Courier findfont 10 scalefont def end errordict/handleerror{systemdict begin
$error begin $brkpage begin newerror{/newerror false store vmstatus pop pop 0
ne{grestoreall}if errorname(VMerror)ne{showpage}if initgraphics courier setfont
lmargin 720 moveto errorname(VMerror)eq{userdict/ehsave known{clear userdict
/ehsave get restore 2 vmreclaim}if vmstatus exch pop exch pop PrtVMMsg}{
(ERROR: )prnt errorname prnt nl(OFFENDING COMMAND: )prnt/command load prnt
$error/ostack known{nl nl(STACK:)prnt nl nl $error/ostack get aload length{==}
repeat}if}ifelse systemdict/showpage get exec(%%[ Error: )print errorname
=print(; OffendingCommand: )print/command load =print( ]%%)= flush}if end end
end}dup 0 systemdict put dup 4 $brkpage put bind readonly put/currentpacking
where{pop/setpacking where{pop oldpack setpacking}if}if
%%EndResource
%%BeginProcSet: Pscript_Res_Emul 5.0 0
/defineresource where{pop}{userdict begin/defineresource{userdict/Resources 2
copy known{get begin}{15 dict dup begin put}ifelse exch readonly exch
currentdict 1 index known not{dup 30 dict def}if load 3 -1 roll 2 index put
end}bind readonly def/findresource{userdict/Resources get exch get exch get}
bind readonly def/resourceforall{pop pop pop pop}bind readonly def
/resourcestatus{userdict/Resources 2 copy known{get exch 2 copy known{get exch
known{0 -1 true}{false}ifelse}{pop pop pop false}ifelse}{pop pop pop pop false}
ifelse}bind readonly def end}ifelse
%%EndProcSet
userdict /Pscript_WinNT_Incr 230 dict dup begin put
%%BeginResource: file Pscript_FatalError 5.0 0
userdict begin/FatalErrorIf{{initgraphics findfont 1 index 0 eq{exch pop}{dup
length dict begin{1 index/FID ne{def}{pop pop}ifelse}forall/Encoding
{ISOLatin1Encoding}stopped{StandardEncoding}if def currentdict end
/ErrFont-Latin1 exch definefont}ifelse exch scalefont setfont counttomark 3 div
cvi{moveto show}repeat showpage quit}{cleartomark}ifelse}bind def end
%%EndResource
userdict begin/PrtVMMsg{vmstatus exch sub exch pop gt{[
(This job requires more memory than is available in this printer.)100 500
(Try one or more of the following, and then print again:)100 485
(For the output format, choose Optimize For Portability.)115 470
(In the Device Settings page, make sure the Available PostScript Memory is accurate.)
115 455(Reduce the number of fonts in the document.)115 440
(Print the document in parts.)115 425 12/Times-Roman[/GothicBBB-Medium-RKSJ-H
dup{findfont}stopped{cleartomark}{/FontName get eq{pop cleartomark[
<82B182CC83578387837582CD8CBB8DDD82B182CC8376838A8393835E82C59798977082C582AB82
E988C88FE382CC83818382838A82F0954B977682C682B582DC82B7814288C889BA82CC8A6590DD9
2E8>90 500<82CC88EA82C2814182DC82BD82CD82BB82CC916782DD8D8782ED82B982F08E7792
E882B582BD8CE381418376838A8393836782B592BC82B582C482DD82C482AD82BE82B382A28142>
90 485<A5506F73745363726970748376838D8370836583428356815B836782A982E7814183478
389815B82AA8C798CB882B782E982E682A482C98DC5934B89BB2082F0914991F082B782E98142>
90 455<A58366836F83438358834983768356838783938376838D8370836583428356815B83678
2CC209798977082C582AB82E98376838A8393835E83818382838A2082CC926C82AA90B382B582A2
82B182C682F08A6D944682B782E98142>90 440<A58368834C8385838183938367928682C58E6
7977082B382EA82C482A282E9837483488393836782CC909482F08CB882E782B78142>90 425
<A58368834C838583818393836782F095AA8A8482B582C48376838A8393836782B782E98142>90
410 10 0/GothicBBB-Medium-RKSJ-H}{cleartomark}ifelse}ifelse showpage
(%%[ PrinterError: Low Printer VM ]%%)= true FatalErrorIf}if}bind def end
version cvi 2016 ge{/VM?{pop}bind def}{/VM? userdict/PrtVMMsg get def}ifelse
105000 VM?
%%BeginResource: file Pscript_Win_Basic 5.0 0
/d/def load def/,/load load d/~/exch , d/?/ifelse , d/!/pop , d/`/begin , d/^
/index , d/@/dup , d/+/translate , d/$/roll , d/U/userdict , d/M/moveto , d/-
/rlineto , d/&/currentdict , d/:/gsave , d/;/grestore , d/F/false , d/T/true ,
d/N/newpath , d/E/end , d/Ac/arc , d/An/arcn , d/A/ashow , d/D/awidthshow , d/C
/closepath , d/V/div , d/O/eofill , d/L/fill , d/I/lineto , d/-c/curveto , d/-M
/rmoveto , d/+S/scale , d/Ji/setfont , d/Lc/setlinecap , d/Lj/setlinejoin , d
/Lw/setlinewidth , d/Lm/setmiterlimit , d/sd/setdash , d/S/show , d/LH/showpage
, d/K/stroke , d/W/widthshow , d/R/rotate , d/L2? false/languagelevel where{pop
languagelevel 2 ge{pop true}if}if d L2?{/xS/xshow , d/yS/yshow , d/zS/xyshow ,
d}if/b{bind d}bind d/bd{bind d}bind d/xd{~ d}bd/ld{, d}bd/bn/bind ld/lw/Lw ld
/lc/Lc ld/lj/Lj ld/sg/setgray ld/ADO_mxRot null d/self & d/OrgMx matrix
currentmatrix d/reinitialize{: OrgMx setmatrix[/TextInit/GraphInit/UtilsInit
counttomark{@ where{self eq}{F}?{cvx exec}{!}?}repeat cleartomark ;}b
/initialize{`{/Pscript_Win_Data where{!}{U/Pscript_Win_Data & put}?/ADO_mxRot ~
d/TextInitialised? F d reinitialize E}{U/Pscript_Win_Data 230 dict @ ` put
/ADO_mxRot ~ d/TextInitialised? F d reinitialize}?}b/terminate{!{& self eq
{exit}{E}?}loop E}b/suspend/terminate , d/resume{` Pscript_Win_Data `}b U `
/lucas 21690 d/featurebegin{countdictstack lucas[}b/featurecleanup{stopped
{cleartomark @ lucas eq{! exit}if}loop countdictstack ~ sub @ 0 gt{{E}repeat}
{!}?}b E/snap{transform 0.25 sub round 0.25 add ~ 0.25 sub round 0.25 add ~
itransform}b/dsnap{dtransform round ~ round ~ idtransform}b/nonzero_round{@ 0.5
ge{round}{@ -0.5 lt{round}{0 ge{1}{-1}?}?}?}b/nonzero_dsnap{dtransform
nonzero_round ~ nonzero_round ~ idtransform}b U<04>cvn{}put/rr{1 ^ 0 - 0 ~ -
neg 0 - C}b/irp{4 -2 $ + +S fx 4 2 $ M 1 ^ 0 - 0 ~ - neg 0 -}b/rp{4 2 $ M 1 ^ 0
- 0 ~ - neg 0 -}b/solid{[]0 sd}b/g{@ not{U/DefIf_save save put}if U/DefIf_bool
2 ^ put}b/DefIf_El{if U/DefIf_bool get not @{U/DefIf_save get restore}if}b/e
{DefIf_El !}b/UDF{L2?{undefinefont}{!}?}b/UDR{L2?{undefineresource}{! !}?}b
/freeVM{/Courier findfont[40 0 0 -40 0 0]makefont Ji 2 vmreclaim}b/hfRedefFont
{findfont @ length dict `{1 ^/FID ne{d}{! !}?}forall & E @ ` ~{/CharStrings 1
dict `/.notdef 0 d & E d}if/Encoding 256 array 0 1 255{1 ^ ~/.notdef put}for d
E definefont !}bind d/hfMkCIDFont{/CIDFont findresource @ length 2 add dict `{1
^ @/FID eq ~ @/XUID eq ~/UIDBase eq or or{! !}{d}?}forall/CDevProc ~ d/Metrics2
16 dict d/CIDFontName 1 ^ d & E 1 ^ ~/CIDFont defineresource ![~]composefont !}
bind d
%%EndResource
%%BeginResource: file Pscript_Win_Utils_L1 5.0 0
/rf{N rp L}b/fx{1 1 dtransform @ 0 ge{1 sub 1}{1 add -0.25}? 3 -1 $ @ 0 ge{1
sub 1}{1 add -0.25}? 3 1 $ 4 1 $ idtransform 4 -2 $ idtransform}b/BZ{4 -2 $
snap + +S fx rf}b/rs{N rp C K}b/rc{N rp clip N}b/UtilsInit{}b/setcolorspace{!}b
/scol{[/setgray/setrgbcolor/setcolor/setcmykcolor/setcolor/setgray]~ get cvx
exec}b/colspRefresh{}b/AddFontInfoBegin{/FontInfo 8 dict @ `}bind d/AddFontInfo
{/GlyphNames2Unicode 16 dict d/GlyphNames2HostCode 16 dict d}bind d
/AddFontInfoEnd{E d}bind d
%%EndResource
end
%%EndProlog

%%BeginSetup
statusdict begin (%%[ ProductName: ) print product print ( ]%%)= flush end
[ 1 0 0 1 0 0 ] false Pscript_WinNT_Incr dup /initialize get exec
featurebegin{
%%BeginNonPPDFeature: JobTimeout 0
0 /languagelevel where{pop languagelevel}{1}ifelse 2 ge{1 dict dup/JobTimeout  4 -1 roll put setuserparams}{statusdict/setjobtimeout get exec}ifelse
%%EndNonPPDFeature
}featurecleanup

featurebegin{
%%BeginNonPPDFeature: WaitTimeout 300
300 /languagelevel where{pop languagelevel}{1}ifelse 2 ge{1 dict dup/WaitTimeout 4 -1 roll put setuserparams}{statusdict/waittimeout 3 -1 roll put}ifelse
%%EndNonPPDFeature
}featurecleanup

featurebegin{
%%BeginFeature: *Resolution 600dpi

%%EndFeature
}featurecleanup
featurebegin{
%%BeginFeature: *CustomPageSize
 
529 89 0 0 1 exch pop statusdict /setpageparams get exec
%%EndFeature
}featurecleanup
1 setlinecap 1 setlinejoin
/mysetup [ 72 600 V 0 0 -72 600 V 0 88.72441 ] def 
%%EndSetup

userdict begin /VMsave save def end
%%Page: 1 1
%%PageBoundingBox: 0 0 529 89
%%EndPageComments
%%BeginPageSetup
/DeviceRGB dup setcolorspace /colspABC exch def
mysetup concat colspRefresh
%%EndPageSetup

Pscript_WinNT_Incr begin
%%BeginResource: file Pscript_Win_GdiObject 5.0 0
/SavedCTM null d/CTMsave{/SavedCTM SavedCTM currentmatrix d}b/CTMrestore
{SavedCTM setmatrix}b/mp null d/ADO_mxRot null d/GDIHMatrix null d
/GDIHPatternDict 22 dict d GDIHPatternDict `/PatternType 1 d/PaintType 2 d/Reps
L2?{1}{5}? d/XStep 8 Reps mul d/YStep XStep d/BBox[0 0 XStep YStep]d/TilingType
1 d/PaintProc{` 1 Lw[]0 sd PaintData , exec E}b/FGnd null d/BGnd null d
/HS_Horizontal{horiz}b/HS_Vertical{vert}b/HS_FDiagonal{fdiag}b/HS_BDiagonal
{biag}b/HS_Cross{horiz vert}b/HS_DiagCross{fdiag biag}b/MaxXYStep XStep YStep
gt{XStep}{YStep}? d/horiz{Reps{0 4 M XStep 0 - 0 8 +}repeat 0 -8 Reps mul + K}b
/vert{Reps{4 0 M 0 YStep - 8 0 +}repeat 0 -8 Reps mul + K}b/biag{Reps{0 0 M
MaxXYStep @ - 0 YStep neg M MaxXYStep @ - 0 8 +}repeat 0 -8 Reps mul + 0 YStep
M 8 8 - K}b/fdiag{Reps{0 0 M MaxXYStep @ neg - 0 YStep M MaxXYStep @ neg - 0 8
+}repeat 0 -8 Reps mul + MaxXYStep @ M 8 -8 - K}b E/makehatch{4 -2 $/yOrg ~ d
/xOrg ~ d GDIHPatternDict/PaintData 3 -1 $ put CTMsave GDIHMatrix setmatrix
GDIHPatternDict matrix xOrg yOrg + mp CTMrestore ~ U ~ 2 ^ put}b/h0{/h0
/HS_Horizontal makehatch}b/h1{/h1/HS_Vertical makehatch}b/h2{/h2/HS_FDiagonal
makehatch}b/h3{/h3/HS_BDiagonal makehatch}b/h4{/h4/HS_Cross makehatch}b/h5{/h5
/HS_DiagCross makehatch}b/GDIBWPatternMx null d/pfprep{save 8 1 $
/PatternOfTheDay 8 1 $ GDIBWPatternDict `/yOrg ~ d/xOrg ~ d/PaintData ~ d/yExt
~ d/Width ~ d/BGnd ~ d/FGnd ~ d/Height yExt RepsV mul d/mx[Width 0 0 Height 0
0]d E build_pattern ~ !}b/pfbf{/fEOFill ~ d pfprep hbf fEOFill{O}{L}? restore}b
/GraphInit{GDIHMatrix null eq{/SavedCTM matrix d : ADO_mxRot concat 0 0 snap +
: 0.48 @ GDIHPatternDict ` YStep mul ~ XStep mul ~ nonzero_dsnap YStep V ~
XStep V ~ E +S/GDIHMatrix matrix currentmatrix readonly d ; : 0.24 -0.24 +S
GDIBWPatternDict ` Width Height E nonzero_dsnap +S/GDIBWPatternMx matrix
currentmatrix readonly d ; ;}if}b
%%EndResource
%%BeginResource: file Pscript_Win_GdiObject_L1 5.0 0
/GDIBWPatternDict 25 dict @ `/PatternType 1 d/PaintType 2 d/RepsV 6 d/RepsH 5 d
/BBox[0 0 RepsH 1]d/TilingType 1 d/XStep 1 d/YStep 1 d/Height 8 RepsV mul d
/Width 8 d/mx[Width 0 0 Height neg 0 Height]d/FGnd null d/BGnd null d
/SetBGndFGnd{}b/PaintProc{` SetBGndFGnd RepsH{Width Height F mx PaintData
imagemask Width 0 +}repeat E}b E d/GDIpattfill{@ ` BGnd null ne PaintType 2 eq
and{: BGnd aload ! scol fEOFill{O}{L}? ; FGnd aload ! U/iCol 2 ^ put @ 0 eq{!
2}{@ 1 eq ~ 2 eq or{4}{5}?}? -1 $}if E @ patterncalc : 4 ^/PaintType get 2 eq
{iCol 0 eq{6 -1 $}if iCol 1 eq iCol 2 eq or{8 -3 $}if iCol 3 eq iCol 4 eq or{9
-4 $}if iCol scol}if fEOFill{eoclip}{clip}? N patternfill ; N}b/hbf
{GDIpattfill}b/hfMain{/fEOFill ~ d ~/iCol ~ d GDIpattfill}b/hf{: hfMain ;}b
/mpstr 1 string d/mp{~ @ length 12 add dict copy `/PatternCTM matrix
currentmatrix d/PatternMatrix ~ d/PatWidth XStep mpstr length mul d/PatHeight
YStep d/FontType 3 d/Encoding 256 array d 3 string 0 1 255{Encoding ~ @ 3 ^ cvs
cvn put}for !/FontMatrix matrix d/FontBBox BBox d/BuildChar{! @ ` XStep 0
FontBBox aload ! setcachedevice/PaintProc , E : exec ;}b & E ~ @ 3 -1 $
definefont}b/build_pattern{: GDIBWPatternDict ` Width Height E dsnap +S
/GDIBWPatternMx matrix currentmatrix d ; CTMsave GDIBWPatternMx setmatrix
GDIBWPatternDict @ ` xOrg yOrg E matrix + mp CTMrestore}b/patterncalc{` :
PatternCTM setmatrix PatternMatrix concat BBox aload ! ! ! + pathbbox ;
PatHeight V ceiling 4 1 $ PatWidth V ceiling 4 1 $ PatHeight V floor 4 1 $
PatWidth V floor 4 1 $ 2 ^ sub cvi abs ~ 3 ^ sub cvi abs ~ 4 2 $ PatHeight mul
~ PatWidth mul ~ E}b/patternfill{5 -1 $ @ ` Ji PatternCTM setmatrix
PatternMatrix concat 0 2 ^ 2 ^ M 0 1 mpstr length 1 sub{1 ^ mpstr 3 1 $ put}for
! 2 ^{currentpoint 5 ^{mpstr S}repeat YStep add M}repeat ! ! ! ! E}b/pbf{: 14
dict `/fGray ~ d/fEOFill ~ d/yOrg ~ d/xOrg ~ d/PaintData ~ d/OutputBPP ~ d
/Height ~ d/Width ~ d/mx xOrg yOrg matrix + d fGray{/PaintProc{` Width Height
OutputBPP mx PaintData image E}b}{/PaintProc{` Width Height 8 mx PaintData F
OutputBPP 8 idiv colorimage E}b}? pathbbox fEOFill{eoclip}{clip}?/Top ~ d/Right
~ d/Bottom ~ d/Left ~ d Top Height neg Bottom 1 sub{Left Width Right 1 sub{1 ^
2 copy + & PaintProc neg ~ neg ~ +}bind for !}bind for E ;}b
%%EndResource
end reinitialize
N 3 6 M 3 367 I 364 367 I 364 6 I 3 6 I C 
0.918 0.938 0.969 1 scol  O N 364 6 M 364 367 I 726 367 I 726 6 I 364 6 I C 
 O N 3 367 M 3 728 I 364 728 I 364 367 I 3 367 I C 
 O N 364 367 M 364 728 I 726 728 I 726 367 I 364 367 I C 
 O 0 0 0 1 scol 1 Lj 0 Lc 27 Lw solid : 359 0 13 739 rc N 364 1 M 364 733 I : [ 0.344 0 0 0.344 0 0 ] concat K 
; ; : 0 361 738 14 rc N -2 367 M 731 367 I : [ 0.344 0 0 0.344 0 0 ] concat K 
; ; : 0 0 10 739 rc N 3 1 M 3 733 I : [ 0.344 0 0 0.344 0 0 ] concat K 
; ; : 721 0 13 739 rc N 726 1 M 726 733 I : [ 0.344 0 0 0.344 0 0 ] concat K 
; ; : 0 0 738 13 rc N -2 6 M 731 6 I : [ 0.344 0 0 0.344 0 0 ] concat K 
; ; : 0 723 738 13 rc N -2 728 M 731 728 I : [ 0.344 0 0 0.344 0 0 ] concat K 
; ; N 104 209 M 104 157 145 115 195 115 -c 245 115 286 157 286 209 -c 286 261 245 302 195 302 -c 145 302 104 261 104 209 -c C 
1 0 0 1 scol  O 0 Lj 8 Lm 80 Lw : 0 0 406 422 rc N 104 209 M 104 157 145 115 195 115 -c 245 115 286 157 286 209 -c 286 261 245 302 195 302 -c 145 302 104 261 104 209 -c : [ 0.344 0 0 0.344 0 0 ] concat K 
; ; N 468 209 M 468 157 509 115 559 115 -c 609 115 649 157 649 209 -c 649 261 609 302 559 302 -c 509 302 468 261 468 209 -c C 
 O : 350 0 419 422 rc N 468 209 M 468 157 509 115 559 115 -c 609 115 649 157 649 209 -c 649 261 609 302 559 302 -c 509 302 468 261 468 209 -c : [ 0.344 0 0 0.344 0 0 ] concat K 
; ; N 1227 6 M 1227 367 I 1588 367 I 1588 6 I 1227 6 I C 
0.918 0.938 0.969 1 scol  O N 1588 6 M 1588 367 I 1950 367 I 1950 6 I 1588 6 I C 
 O N 1227 367 M 1227 728 I 1588 728 I 1588 367 I 1227 367 I C 
 O N 1588 367 M 1588 728 I 1950 728 I 1950 367 I 1588 367 I C 
 O 0 0 0 1 scol 1 Lj 10 Lm 27 Lw : 1583 0 13 739 rc N 1588 1 M 1588 733 I : [ 0.344 0 0 0.344 0 0 ] concat K 
; ; N 1222 367 M 1955 367 I : [ 0.344 0 0 0.344 0 0 ] concat K 
; : 1221 0 13 739 rc N 1227 1 M 1227 733 I : [ 0.344 0 0 0.344 0 0 ] concat K 
; ; : 1944 0 13 739 rc N 1950 1 M 1950 733 I : [ 0.344 0 0 0.344 0 0 ] concat K 
; ; N 1222 6 M 1955 6 I : [ 0.344 0 0 0.344 0 0 ] concat K 
; N 1222 728 M 1955 728 I : [ 0.344 0 0 0.344 0 0 ] concat K 
; N 1327 209 M 1327 157 1368 115 1418 115 -c 1468 115 1509 157 1509 209 -c 1509 261 1468 302 1418 302 -c 1368 302 1327 261 1327 209 -c C 
1 0 0 1 scol  O 0 Lj 8 Lm 80 Lw : 1209 0 420 422 rc N 1327 209 M 1327 157 1368 115 1418 115 -c 1468 115 1509 157 1509 209 -c 1509 261 1468 302 1418 302 -c 1368 302 1327 261 1327 209 -c : [ 0.344 0 0 0.344 0 0 ] concat K 
; ; N 1327 556 M 1327 504 1368 462 1418 462 -c 1468 462 1509 504 1509 556 -c 1509 608 1468 649 1418 649 -c 1368 649 1327 608 1327 556 -c C 
 O : 1209 344 420 395 rc N 1327 556 M 1327 504 1368 462 1418 462 -c 1468 462 1509 504 1509 556 -c 1509 608 1468 649 1418 649 -c 1368 649 1327 608 1327 556 -c : [ 0.344 0 0 0.344 0 0 ] concat K 
; ; N 2450 6 M 2450 367 I 2812 367 I 2812 6 I 2450 6 I C 
0.918 0.938 0.969 1 scol  O N 2812 6 M 2812 367 I 3174 367 I 3174 6 I 2812 6 I C 
 O N 2450 367 M 2450 728 I 2812 728 I 2812 367 I 2450 367 I C 
 O N 2812 367 M 2812 728 I 3174 728 I 3174 367 I 2812 367 I C 
 O 0 0 0 1 scol 1 Lj 10 Lm 27 Lw : 2807 0 13 739 rc N 2812 1 M 2812 733 I : [ 0.344 0 0 0.344 0 0 ] concat K 
; ; N 2446 367 M 3178 367 I : [ 0.344 0 0 0.344 0 0 ] concat K 
; : 2445 0 13 739 rc N 2450 1 M 2450 733 I : [ 0.344 0 0 0.344 0 0 ] concat K 
; ; : 3168 0 14 739 rc N 3174 1 M 3174 733 I : [ 0.344 0 0 0.344 0 0 ] concat K 
; ; N 2446 6 M 3178 6 I : [ 0.344 0 0 0.344 0 0 ] concat K 
; N 2446 728 M 3178 728 I : [ 0.344 0 0 0.344 0 0 ] concat K 
; N 2555 209 M 2555 157 2595 115 2643 115 -c 2692 115 2731 157 2731 209 -c 2731 261 2692 302 2643 302 -c 2595 302 2555 261 2555 209 -c C 
1 0 0 1 scol  O 0 Lj 8 Lm 80 Lw : 2437 0 414 422 rc N 2555 209 M 2555 157 2595 115 2643 115 -c 2692 115 2731 157 2731 209 -c 2731 261 2692 302 2643 302 -c 2595 302 2555 261 2555 209 -c : [ 0.344 0 0 0.344 0 0 ] concat K 
; ; N 2913 556 M 2913 504 2954 462 3004 462 -c 3054 462 3095 504 3095 556 -c 3095 608 3054 649 3004 649 -c 2954 649 2913 608 2913 556 -c C 
 O : 2795 344 420 395 rc N 2913 556 M 2913 504 2954 462 3004 462 -c 3054 462 3095 504 3095 556 -c 3095 608 3054 649 3004 649 -c 2954 649 2913 608 2913 556 -c : [ 0.344 0 0 0.344 0 0 ] concat K 
; ; N 3674 6 M 3674 367 I 4036 367 I 4036 6 I 3674 6 I C 
0.918 0.938 0.969 1 scol  O N 4036 6 M 4036 367 I 4398 367 I 4398 6 I 4036 6 I C 
 O N 3674 367 M 3674 728 I 4036 728 I 4036 367 I 3674 367 I C 
 O N 4036 367 M 4036 728 I 4398 728 I 4398 367 I 4036 367 I C 
 O 0 0 0 1 scol 1 Lj 10 Lm 27 Lw : 4031 0 13 739 rc N 4036 1 M 4036 733 I : [ 0.344 0 0 0.344 0 0 ] concat K 
; ; : 3664 361 744 14 rc N 3670 367 M 4402 367 I : [ 0.344 0 0 0.344 0 0 ] concat K 
; ; : 3669 0 13 739 rc N 3674 1 M 3674 733 I : [ 0.344 0 0 0.344 0 0 ] concat K 
; ; : 4392 0 13 739 rc N 4398 1 M 4398 733 I : [ 0.344 0 0 0.344 0 0 ] concat K 
; ; : 3664 0 744 13 rc N 3670 6 M 4402 6 I : [ 0.344 0 0 0.344 0 0 ] concat K 
; ; : 3664 723 744 13 rc N 3670 728 M 4402 728 I : [ 0.344 0 0 0.344 0 0 ] concat K 
; ; N 3778 209 M 3778 157 3819 115 3869 115 -c 3919 115 3959 157 3959 209 -c 3959 261 3919 302 3869 302 -c 3819 302 3778 261 3778 209 -c C 
1 0 0 1 scol  O 0 Lj 8 Lm 80 Lw : 3660 0 419 422 rc N 3778 209 M 3778 157 3819 115 3869 115 -c 3919 115 3959 157 3959 209 -c 3959 261 3919 302 3869 302 -c 3819 302 3778 261 3778 209 -c : [ 0.344 0 0 0.344 0 0 ] concat K 
; ; N 4136 209 M 4136 157 4177 115 4227 115 -c 4277 115 4317 157 4317 209 -c 4317 261 4277 302 4227 302 -c 4177 302 4136 261 4136 209 -c C 
 O : 4018 0 390 422 rc N 4136 209 M 4136 157 4177 115 4227 115 -c 4277 115 4317 157 4317 209 -c 4317 261 4277 302 4227 302 -c 4177 302 4136 261 4136 209 -c : [ 0.344 0 0 0.344 0 0 ] concat K 
; ; N 3778 556 M 3778 504 3819 462 3869 462 -c 3919 462 3959 504 3959 556 -c 3959 608 3919 649 3869 649 -c 3819 649 3778 608 3778 556 -c C 
 O : 3660 344 419 395 rc N 3778 556 M 3778 504 3819 462 3869 462 -c 3919 462 3959 504 3959 556 -c 3959 608 3919 649 3869 649 -c 3819 649 3778 608 3778 556 -c : [ 0.344 0 0 0.344 0 0 ] concat K 
; ; N 4136 556 M 4136 504 4177 462 4227 462 -c 4277 462 4317 504 4317 556 -c 4317 608 4277 649 4227 649 -c 4177 649 4136 608 4136 556 -c C 
 O : 4018 344 390 395 rc N 4136 556 M 4136 504 4177 462 4227 462 -c 4277 462 4317 504 4317 556 -c 4317 608 4277 649 4227 649 -c 4177 649 4136 608 4136 556 -c : [ 0.344 0 0 0.344 0 0 ] concat K 
; ; LH
(%%[Page: 1]%%) = 
%%PageTrailer

%%Trailer
%%BoundingBox: 0 0 529 89
%%DocumentNeededResources: 
%%DocumentSuppliedResources: 
%%+ procset Pscript_WinNT_ErrorHandler 5.0 0
%%+ procset Pscript_FatalError 5.0 0
%%+ procset Pscript_Win_Basic 5.0 0
%%+ procset Pscript_Win_Utils_L1 5.0 0
%%+ procset Pscript_Win_GdiObject 5.0 0
%%+ procset Pscript_Win_GdiObject_L1 5.0 0
Pscript_WinNT_Incr dup /terminate get exec
VMsave restore
%%Pages: 1
(%%[LastPage]%%) = 
%%EOF
