%!PS-Adobe-3.0
%%Title: 
%%Creator: PScript5.dll Version 5.2.2
%%CreationDate: 4/15/2018 17:15:6
%%For: liao
%%BoundingBox: (atend)
%%Pages: (atend)
%%Orientation: Portrait
%%PageOrder: Special
%%DocumentNeededResources: (atend)
%%DocumentSuppliedResources: (atend)
%%DocumentData: Clean7Bit
%%TargetDevice: () (52.3) 320
%%LanguageLevel: 1
%%EndComments

%%BeginDefaults
%%PageBoundingBox: 0 0 528 91
%%ViewingOrientation: 1 0 0 1
%%EndDefaults


%%BeginProlog
%%BeginResource: file Pscript_WinNT_ErrorHandler 5.0 0
/currentpacking where{pop/oldpack currentpacking def/setpacking where{pop false
setpacking}if}if/$brkpage 64 dict def $brkpage begin/prnt{dup type/stringtype
ne{=string cvs}if dup length 6 mul/tx exch def/ty 10 def currentpoint/toy exch
def/tox exch def 1 setgray newpath tox toy 2 sub moveto 0 ty rlineto tx 0
rlineto 0 ty neg rlineto closepath fill tox toy moveto 0 setgray show}bind def
/nl{currentpoint exch pop lmargin exch moveto 0 -10 rmoveto}def/=={/cp 0 def
typeprint nl}def/typeprint{dup type exec}readonly def/lmargin 72 def/rmargin 72
def/tprint{dup length cp add rmargin gt{nl/cp 0 def}if dup length cp add/cp
exch def prnt}readonly def/cvsprint{=string cvs tprint( )tprint}readonly def
/integertype{cvsprint}readonly def/realtype{cvsprint}readonly def/booleantype
{cvsprint}readonly def/operatortype{(--)tprint =string cvs tprint(-- )tprint}
readonly def/marktype{pop(-mark- )tprint}readonly def/dicttype{pop
(-dictionary- )tprint}readonly def/nulltype{pop(-null- )tprint}readonly def
/filetype{pop(-filestream- )tprint}readonly def/savetype{pop(-savelevel- )
tprint}readonly def/fonttype{pop(-fontid- )tprint}readonly def/nametype{dup
xcheck not{(/)tprint}if cvsprint}readonly def/stringtype{dup rcheck{(\()tprint
tprint(\))tprint}{pop(-string- )tprint}ifelse}readonly def/arraytype{dup rcheck
{dup xcheck{({)tprint{typeprint}forall(})tprint}{([)tprint{typeprint}forall(])
tprint}ifelse}{pop(-array- )tprint}ifelse}readonly def/packedarraytype{dup
rcheck{dup xcheck{({)tprint{typeprint}forall(})tprint}{([)tprint{typeprint}
forall(])tprint}ifelse}{pop(-packedarray- )tprint}ifelse}readonly def/courier
/Courier findfont 10 scalefont def end errordict/handleerror{systemdict begin
$error begin $brkpage begin newerror{/newerror false store vmstatus pop pop 0
ne{grestoreall}if errorname(VMerror)ne{showpage}if initgraphics courier setfont
lmargin 720 moveto errorname(VMerror)eq{userdict/ehsave known{clear userdict
/ehsave get restore 2 vmreclaim}if vmstatus exch pop exch pop PrtVMMsg}{
(ERROR: )prnt errorname prnt nl(OFFENDING COMMAND: )prnt/command load prnt
$error/ostack known{nl nl(STACK:)prnt nl nl $error/ostack get aload length{==}
repeat}if}ifelse systemdict/showpage get exec(%%[ Error: )print errorname
=print(; OffendingCommand: )print/command load =print( ]%%)= flush}if end end
end}dup 0 systemdict put dup 4 $brkpage put bind readonly put/currentpacking
where{pop/setpacking where{pop oldpack setpacking}if}if
%%EndResource
%%BeginProcSet: Pscript_Res_Emul 5.0 0
/defineresource where{pop}{userdict begin/defineresource{userdict/Resources 2
copy known{get begin}{15 dict dup begin put}ifelse exch readonly exch
currentdict 1 index known not{dup 30 dict def}if load 3 -1 roll 2 index put
end}bind readonly def/findresource{userdict/Resources get exch get exch get}
bind readonly def/resourceforall{pop pop pop pop}bind readonly def
/resourcestatus{userdict/Resources 2 copy known{get exch 2 copy known{get exch
known{0 -1 true}{false}ifelse}{pop pop pop false}ifelse}{pop pop pop pop false}
ifelse}bind readonly def end}ifelse
%%EndProcSet
userdict /Pscript_WinNT_Incr 230 dict dup begin put
%%BeginResource: file Pscript_FatalError 5.0 0
userdict begin/FatalErrorIf{{initgraphics findfont 1 index 0 eq{exch pop}{dup
length dict begin{1 index/FID ne{def}{pop pop}ifelse}forall/Encoding
{ISOLatin1Encoding}stopped{StandardEncoding}if def currentdict end
/ErrFont-Latin1 exch definefont}ifelse exch scalefont setfont counttomark 3 div
cvi{moveto show}repeat showpage quit}{cleartomark}ifelse}bind def end
%%EndResource
userdict begin/PrtVMMsg{vmstatus exch sub exch pop gt{[
(This job requires more memory than is available in this printer.)100 500
(Try one or more of the following, and then print again:)100 485
(For the output format, choose Optimize For Portability.)115 470
(In the Device Settings page, make sure the Available PostScript Memory is accurate.)
115 455(Reduce the number of fonts in the document.)115 440
(Print the document in parts.)115 425 12/Times-Roman[/GothicBBB-Medium-RKSJ-H
dup{findfont}stopped{cleartomark}{/FontName get eq{pop cleartomark[
<82B182CC83578387837582CD8CBB8DDD82B182CC8376838A8393835E82C59798977082C582AB82
E988C88FE382CC83818382838A82F0954B977682C682B582DC82B7814288C889BA82CC8A6590DD9
2E8>90 500<82CC88EA82C2814182DC82BD82CD82BB82CC916782DD8D8782ED82B982F08E7792
E882B582BD8CE381418376838A8393836782B592BC82B582C482DD82C482AD82BE82B382A28142>
90 485<A5506F73745363726970748376838D8370836583428356815B836782A982E7814183478
389815B82AA8C798CB882B782E982E682A482C98DC5934B89BB2082F0914991F082B782E98142>
90 455<A58366836F83438358834983768356838783938376838D8370836583428356815B83678
2CC209798977082C582AB82E98376838A8393835E83818382838A2082CC926C82AA90B382B582A2
82B182C682F08A6D944682B782E98142>90 440<A58368834C8385838183938367928682C58E6
7977082B382EA82C482A282E9837483488393836782CC909482F08CB882E782B78142>90 425
<A58368834C838583818393836782F095AA8A8482B582C48376838A8393836782B782E98142>90
410 10 0/GothicBBB-Medium-RKSJ-H}{cleartomark}ifelse}ifelse showpage
(%%[ PrinterError: Low Printer VM ]%%)= true FatalErrorIf}if}bind def end
version cvi 2016 ge{/VM?{pop}bind def}{/VM? userdict/PrtVMMsg get def}ifelse
105000 VM?
%%BeginResource: file Pscript_Win_Basic 5.0 0
/d/def load def/,/load load d/~/exch , d/?/ifelse , d/!/pop , d/`/begin , d/^
/index , d/@/dup , d/+/translate , d/$/roll , d/U/userdict , d/M/moveto , d/-
/rlineto , d/&/currentdict , d/:/gsave , d/;/grestore , d/F/false , d/T/true ,
d/N/newpath , d/E/end , d/Ac/arc , d/An/arcn , d/A/ashow , d/D/awidthshow , d/C
/closepath , d/V/div , d/O/eofill , d/L/fill , d/I/lineto , d/-c/curveto , d/-M
/rmoveto , d/+S/scale , d/Ji/setfont , d/Lc/setlinecap , d/Lj/setlinejoin , d
/Lw/setlinewidth , d/Lm/setmiterlimit , d/sd/setdash , d/S/show , d/LH/showpage
, d/K/stroke , d/W/widthshow , d/R/rotate , d/L2? false/languagelevel where{pop
languagelevel 2 ge{pop true}if}if d L2?{/xS/xshow , d/yS/yshow , d/zS/xyshow ,
d}if/b{bind d}bind d/bd{bind d}bind d/xd{~ d}bd/ld{, d}bd/bn/bind ld/lw/Lw ld
/lc/Lc ld/lj/Lj ld/sg/setgray ld/ADO_mxRot null d/self & d/OrgMx matrix
currentmatrix d/reinitialize{: OrgMx setmatrix[/TextInit/GraphInit/UtilsInit
counttomark{@ where{self eq}{F}?{cvx exec}{!}?}repeat cleartomark ;}b
/initialize{`{/Pscript_Win_Data where{!}{U/Pscript_Win_Data & put}?/ADO_mxRot ~
d/TextInitialised? F d reinitialize E}{U/Pscript_Win_Data 230 dict @ ` put
/ADO_mxRot ~ d/TextInitialised? F d reinitialize}?}b/terminate{!{& self eq
{exit}{E}?}loop E}b/suspend/terminate , d/resume{` Pscript_Win_Data `}b U `
/lucas 21690 d/featurebegin{countdictstack lucas[}b/featurecleanup{stopped
{cleartomark @ lucas eq{! exit}if}loop countdictstack ~ sub @ 0 gt{{E}repeat}
{!}?}b E/snap{transform 0.25 sub round 0.25 add ~ 0.25 sub round 0.25 add ~
itransform}b/dsnap{dtransform round ~ round ~ idtransform}b/nonzero_round{@ 0.5
ge{round}{@ -0.5 lt{round}{0 ge{1}{-1}?}?}?}b/nonzero_dsnap{dtransform
nonzero_round ~ nonzero_round ~ idtransform}b U<04>cvn{}put/rr{1 ^ 0 - 0 ~ -
neg 0 - C}b/irp{4 -2 $ + +S fx 4 2 $ M 1 ^ 0 - 0 ~ - neg 0 -}b/rp{4 2 $ M 1 ^ 0
- 0 ~ - neg 0 -}b/solid{[]0 sd}b/g{@ not{U/DefIf_save save put}if U/DefIf_bool
2 ^ put}b/DefIf_El{if U/DefIf_bool get not @{U/DefIf_save get restore}if}b/e
{DefIf_El !}b/UDF{L2?{undefinefont}{!}?}b/UDR{L2?{undefineresource}{! !}?}b
/freeVM{/Courier findfont[40 0 0 -40 0 0]makefont Ji 2 vmreclaim}b/hfRedefFont
{findfont @ length dict `{1 ^/FID ne{d}{! !}?}forall & E @ ` ~{/CharStrings 1
dict `/.notdef 0 d & E d}if/Encoding 256 array 0 1 255{1 ^ ~/.notdef put}for d
E definefont !}bind d/hfMkCIDFont{/CIDFont findresource @ length 2 add dict `{1
^ @/FID eq ~ @/XUID eq ~/UIDBase eq or or{! !}{d}?}forall/CDevProc ~ d/Metrics2
16 dict d/CIDFontName 1 ^ d & E 1 ^ ~/CIDFont defineresource ![~]composefont !}
bind d
%%EndResource
%%BeginResource: file Pscript_Win_Utils_L1 5.0 0
/rf{N rp L}b/fx{1 1 dtransform @ 0 ge{1 sub 1}{1 add -0.25}? 3 -1 $ @ 0 ge{1
sub 1}{1 add -0.25}? 3 1 $ 4 1 $ idtransform 4 -2 $ idtransform}b/BZ{4 -2 $
snap + +S fx rf}b/rs{N rp C K}b/rc{N rp clip N}b/UtilsInit{}b/setcolorspace{!}b
/scol{[/setgray/setrgbcolor/setcolor/setcmykcolor/setcolor/setgray]~ get cvx
exec}b/colspRefresh{}b/AddFontInfoBegin{/FontInfo 8 dict @ `}bind d/AddFontInfo
{/GlyphNames2Unicode 16 dict d/GlyphNames2HostCode 16 dict d}bind d
/AddFontInfoEnd{E d}bind d
%%EndResource
end
%%EndProlog

%%BeginSetup
statusdict begin (%%[ ProductName: ) print product print ( ]%%)= flush end
[ 1 0 0 1 0 0 ] false Pscript_WinNT_Incr dup /initialize get exec
featurebegin{
%%BeginNonPPDFeature: JobTimeout 0
0 /languagelevel where{pop languagelevel}{1}ifelse 2 ge{1 dict dup/JobTimeout  4 -1 roll put setuserparams}{statusdict/setjobtimeout get exec}ifelse
%%EndNonPPDFeature
}featurecleanup

featurebegin{
%%BeginNonPPDFeature: WaitTimeout 300
300 /languagelevel where{pop languagelevel}{1}ifelse 2 ge{1 dict dup/WaitTimeout 4 -1 roll put setuserparams}{statusdict/waittimeout 3 -1 roll put}ifelse
%%EndNonPPDFeature
}featurecleanup

featurebegin{
%%BeginFeature: *Resolution 600dpi

%%EndFeature
}featurecleanup
featurebegin{
%%BeginFeature: *CustomPageSize
 
528 91 0 0 1 exch pop statusdict /setpageparams get exec
%%EndFeature
}featurecleanup
1 setlinecap 1 setlinejoin
/mysetup [ 72 600 V 0 0 -72 600 V 0 90.70866 ] def 
%%EndSetup

userdict begin /VMsave save def end
%%Page: 1 1
%%PageBoundingBox: 0 0 528 91
%%EndPageComments
%%BeginPageSetup
/DeviceRGB dup setcolorspace /colspABC exch def
mysetup concat colspRefresh
%%EndPageSetup

Pscript_WinNT_Incr begin
%%BeginResource: file Pscript_Win_GdiObject 5.0 0
/SavedCTM null d/CTMsave{/SavedCTM SavedCTM currentmatrix d}b/CTMrestore
{SavedCTM setmatrix}b/mp null d/ADO_mxRot null d/GDIHMatrix null d
/GDIHPatternDict 22 dict d GDIHPatternDict `/PatternType 1 d/PaintType 2 d/Reps
L2?{1}{5}? d/XStep 8 Reps mul d/YStep XStep d/BBox[0 0 XStep YStep]d/TilingType
1 d/PaintProc{` 1 Lw[]0 sd PaintData , exec E}b/FGnd null d/BGnd null d
/HS_Horizontal{horiz}b/HS_Vertical{vert}b/HS_FDiagonal{fdiag}b/HS_BDiagonal
{biag}b/HS_Cross{horiz vert}b/HS_DiagCross{fdiag biag}b/MaxXYStep XStep YStep
gt{XStep}{YStep}? d/horiz{Reps{0 4 M XStep 0 - 0 8 +}repeat 0 -8 Reps mul + K}b
/vert{Reps{4 0 M 0 YStep - 8 0 +}repeat 0 -8 Reps mul + K}b/biag{Reps{0 0 M
MaxXYStep @ - 0 YStep neg M MaxXYStep @ - 0 8 +}repeat 0 -8 Reps mul + 0 YStep
M 8 8 - K}b/fdiag{Reps{0 0 M MaxXYStep @ neg - 0 YStep M MaxXYStep @ neg - 0 8
+}repeat 0 -8 Reps mul + MaxXYStep @ M 8 -8 - K}b E/makehatch{4 -2 $/yOrg ~ d
/xOrg ~ d GDIHPatternDict/PaintData 3 -1 $ put CTMsave GDIHMatrix setmatrix
GDIHPatternDict matrix xOrg yOrg + mp CTMrestore ~ U ~ 2 ^ put}b/h0{/h0
/HS_Horizontal makehatch}b/h1{/h1/HS_Vertical makehatch}b/h2{/h2/HS_FDiagonal
makehatch}b/h3{/h3/HS_BDiagonal makehatch}b/h4{/h4/HS_Cross makehatch}b/h5{/h5
/HS_DiagCross makehatch}b/GDIBWPatternMx null d/pfprep{save 8 1 $
/PatternOfTheDay 8 1 $ GDIBWPatternDict `/yOrg ~ d/xOrg ~ d/PaintData ~ d/yExt
~ d/Width ~ d/BGnd ~ d/FGnd ~ d/Height yExt RepsV mul d/mx[Width 0 0 Height 0
0]d E build_pattern ~ !}b/pfbf{/fEOFill ~ d pfprep hbf fEOFill{O}{L}? restore}b
/GraphInit{GDIHMatrix null eq{/SavedCTM matrix d : ADO_mxRot concat 0 0 snap +
: 0.48 @ GDIHPatternDict ` YStep mul ~ XStep mul ~ nonzero_dsnap YStep V ~
XStep V ~ E +S/GDIHMatrix matrix currentmatrix readonly d ; : 0.24 -0.24 +S
GDIBWPatternDict ` Width Height E nonzero_dsnap +S/GDIBWPatternMx matrix
currentmatrix readonly d ; ;}if}b
%%EndResource
%%BeginResource: file Pscript_Win_GdiObject_L1 5.0 0
/GDIBWPatternDict 25 dict @ `/PatternType 1 d/PaintType 2 d/RepsV 6 d/RepsH 5 d
/BBox[0 0 RepsH 1]d/TilingType 1 d/XStep 1 d/YStep 1 d/Height 8 RepsV mul d
/Width 8 d/mx[Width 0 0 Height neg 0 Height]d/FGnd null d/BGnd null d
/SetBGndFGnd{}b/PaintProc{` SetBGndFGnd RepsH{Width Height F mx PaintData
imagemask Width 0 +}repeat E}b E d/GDIpattfill{@ ` BGnd null ne PaintType 2 eq
and{: BGnd aload ! scol fEOFill{O}{L}? ; FGnd aload ! U/iCol 2 ^ put @ 0 eq{!
2}{@ 1 eq ~ 2 eq or{4}{5}?}? -1 $}if E @ patterncalc : 4 ^/PaintType get 2 eq
{iCol 0 eq{6 -1 $}if iCol 1 eq iCol 2 eq or{8 -3 $}if iCol 3 eq iCol 4 eq or{9
-4 $}if iCol scol}if fEOFill{eoclip}{clip}? N patternfill ; N}b/hbf
{GDIpattfill}b/hfMain{/fEOFill ~ d ~/iCol ~ d GDIpattfill}b/hf{: hfMain ;}b
/mpstr 1 string d/mp{~ @ length 12 add dict copy `/PatternCTM matrix
currentmatrix d/PatternMatrix ~ d/PatWidth XStep mpstr length mul d/PatHeight
YStep d/FontType 3 d/Encoding 256 array d 3 string 0 1 255{Encoding ~ @ 3 ^ cvs
cvn put}for !/FontMatrix matrix d/FontBBox BBox d/BuildChar{! @ ` XStep 0
FontBBox aload ! setcachedevice/PaintProc , E : exec ;}b & E ~ @ 3 -1 $
definefont}b/build_pattern{: GDIBWPatternDict ` Width Height E dsnap +S
/GDIBWPatternMx matrix currentmatrix d ; CTMsave GDIBWPatternMx setmatrix
GDIBWPatternDict @ ` xOrg yOrg E matrix + mp CTMrestore}b/patterncalc{` :
PatternCTM setmatrix PatternMatrix concat BBox aload ! ! ! + pathbbox ;
PatHeight V ceiling 4 1 $ PatWidth V ceiling 4 1 $ PatHeight V floor 4 1 $
PatWidth V floor 4 1 $ 2 ^ sub cvi abs ~ 3 ^ sub cvi abs ~ 4 2 $ PatHeight mul
~ PatWidth mul ~ E}b/patternfill{5 -1 $ @ ` Ji PatternCTM setmatrix
PatternMatrix concat 0 2 ^ 2 ^ M 0 1 mpstr length 1 sub{1 ^ mpstr 3 1 $ put}for
! 2 ^{currentpoint 5 ^{mpstr S}repeat YStep add M}repeat ! ! ! ! E}b/pbf{: 14
dict `/fGray ~ d/fEOFill ~ d/yOrg ~ d/xOrg ~ d/PaintData ~ d/OutputBPP ~ d
/Height ~ d/Width ~ d/mx xOrg yOrg matrix + d fGray{/PaintProc{` Width Height
OutputBPP mx PaintData image E}b}{/PaintProc{` Width Height 8 mx PaintData F
OutputBPP 8 idiv colorimage E}b}? pathbbox fEOFill{eoclip}{clip}?/Top ~ d/Right
~ d/Bottom ~ d/Left ~ d Top Height neg Bottom 1 sub{Left Width Right 1 sub{1 ^
2 copy + & PaintProc neg ~ neg ~ +}bind for !}bind for E ;}b
%%EndResource
end reinitialize
N 6 22 M 6 383 I 368 383 I 368 22 I 6 22 I C 
0.918 0.938 0.969 1 scol  O N 368 22 M 368 383 I 730 383 I 730 22 I 368 22 I C 
 O N 6 383 M 6 744 I 368 744 I 368 383 I 6 383 I C 
 O N 368 383 M 368 744 I 730 744 I 730 383 I 368 383 I C 
 O 0 0 0 1 scol 1 Lj 0 Lc 27 Lw solid N 368 17 M 368 748 I : [ 0.344 0 0 0.344 0 0 ] concat K 
; : 0 377 742 13 rc N 2 383 M 734 383 I : [ 0.344 0 0 0.344 0 0 ] concat K 
; ; N 6 17 M 6 748 I : [ 0.344 0 0 0.344 0 0 ] concat K 
; N 730 17 M 730 748 I : [ 0.344 0 0 0.344 0 0 ] concat K 
; : 0 16 742 13 rc N 2 22 M 734 22 I : [ 0.344 0 0 0.344 0 0 ] concat K 
; ; : 0 738 742 13 rc N 2 744 M 734 744 I : [ 0.344 0 0 0.344 0 0 ] concat K 
; ; N 110 225 M 110 174 151 132 201 132 -c 251 132 291 174 291 225 -c 291 277 251 319 201 319 -c 151 319 110 277 110 225 -c C 
1 0 0 1 scol  O 0 Lj 8 Lm 80 Lw : 0 14 411 425 rc N 110 225 M 110 174 151 132 201 132 -c 251 132 291 174 291 225 -c 291 277 251 319 201 319 -c 151 319 110 277 110 225 -c : [ 0.344 0 0 0.344 0 0 ] concat K 
; ; N 468 225 M 468 174 509 132 558 132 -c 609 132 649 174 649 225 -c 649 277 609 319 558 319 -c 509 319 468 277 468 225 -c C 
 O N 468 225 M 468 174 509 132 558 132 -c 609 132 649 174 649 225 -c 649 277 609 319 558 319 -c 509 319 468 277 468 225 -c : [ 0.344 0 0 0.344 0 0 ] concat K 
; N 2445 22 M 2445 383 I 2806 383 I 2806 22 I 2445 22 I C 
0.918 0.938 0.969 1 scol  O N 2806 22 M 2806 383 I 3168 383 I 3168 22 I 2806 22 I C 
 O N 2445 383 M 2445 744 I 2806 744 I 2806 383 I 2445 383 I C 
 O N 2806 383 M 2806 744 I 3168 744 I 3168 383 I 2806 383 I C 
 O 0 0 0 1 scol 1 Lj 10 Lm 27 Lw N 2806 17 M 2806 748 I : [ 0.344 0 0 0.344 0 0 ] concat K 
; N 2440 383 M 3173 383 I : [ 0.344 0 0 0.344 0 0 ] concat K 
; N 2445 17 M 2445 748 I : [ 0.344 0 0 0.344 0 0 ] concat K 
; N 3168 17 M 3168 748 I : [ 0.344 0 0 0.344 0 0 ] concat K 
; N 2440 22 M 3173 22 I : [ 0.344 0 0 0.344 0 0 ] concat K 
; N 2440 744 M 3173 744 I : [ 0.344 0 0 0.344 0 0 ] concat K 
; N 2549 225 M 2549 174 2589 132 2637 132 -c 2686 132 2725 174 2725 225 -c 2725 277 2686 319 2637 319 -c 2589 319 2549 277 2549 225 -c C 
1 0 0 1 scol  O 0 Lj 8 Lm 80 Lw N 2549 225 M 2549 174 2589 132 2637 132 -c 2686 132 2725 174 2725 225 -c 2725 277 2686 319 2637 319 -c 2589 319 2549 277 2549 225 -c : [ 0.344 0 0 0.344 0 0 ] concat K 
; N 2549 572 M 2549 520 2589 478 2637 478 -c 2686 478 2725 520 2725 572 -c 2725 624 2686 665 2637 665 -c 2589 665 2549 624 2549 572 -c C 
 O : 2431 360 414 396 rc N 2549 572 M 2549 520 2589 478 2637 478 -c 2686 478 2725 520 2725 572 -c 2725 624 2686 665 2637 665 -c 2589 665 2549 624 2549 572 -c : [ 0.344 0 0 0.344 0 0 ] concat K 
; ; N 3668 22 M 3668 383 I 4030 383 I 4030 22 I 3668 22 I C 
0.918 0.938 0.969 1 scol  O N 4030 22 M 4030 383 I 4392 383 I 4392 22 I 4030 22 I C 
 O N 3668 383 M 3668 744 I 4030 744 I 4030 383 I 3668 383 I C 
 O N 4030 383 M 4030 744 I 4392 744 I 4392 383 I 4030 383 I C 
 O 0 0 0 1 scol 1 Lj 10 Lm 27 Lw N 4030 17 M 4030 748 I : [ 0.344 0 0 0.344 0 0 ] concat K 
; : 3658 377 743 13 rc N 3664 383 M 4396 383 I : [ 0.344 0 0 0.344 0 0 ] concat K 
; ; N 3668 17 M 3668 748 I : [ 0.344 0 0 0.344 0 0 ] concat K 
; N 4392 17 M 4392 748 I : [ 0.344 0 0 0.344 0 0 ] concat K 
; : 3658 16 743 13 rc N 3664 22 M 4396 22 I : [ 0.344 0 0 0.344 0 0 ] concat K 
; ; : 3658 738 743 13 rc N 3664 744 M 4396 744 I : [ 0.344 0 0 0.344 0 0 ] concat K 
; ; N 3772 225 M 3772 174 3813 132 3863 132 -c 3913 132 3953 174 3953 225 -c 3953 277 3913 319 3863 319 -c 3813 319 3772 277 3772 225 -c C 
1 0 0 1 scol  O 0 Lj 8 Lm 80 Lw N 3772 225 M 3772 174 3813 132 3863 132 -c 3913 132 3953 174 3953 225 -c 3953 277 3913 319 3863 319 -c 3813 319 3772 277 3772 225 -c : [ 0.344 0 0 0.344 0 0 ] concat K 
; N 4130 572 M 4130 520 4171 478 4221 478 -c 4271 478 4311 520 4311 572 -c 4311 624 4271 665 4221 665 -c 4171 665 4130 624 4130 572 -c C 
 O : 4012 360 389 396 rc N 4130 572 M 4130 520 4171 478 4221 478 -c 4271 478 4311 520 4311 572 -c 4311 624 4271 665 4221 665 -c 4171 665 4130 624 4130 572 -c : [ 0.344 0 0 0.344 0 0 ] concat K 
; ; N 1221 6 M 1221 367 I 1583 367 I 1583 6 I 1221 6 I C 
0.918 0.938 0.969 1 scol  O N 1583 6 M 1583 367 I 1944 367 I 1944 6 I 1583 6 I C 
 O N 1221 367 M 1221 728 I 1583 728 I 1583 367 I 1221 367 I C 
 O N 1583 367 M 1583 728 I 1944 728 I 1944 367 I 1583 367 I C 
 O 0 0 0 1 scol 1 Lj 10 Lm 27 Lw : 1577 0 13 740 rc N 1583 1 M 1583 732 I : [ 0.344 0 0 0.344 0 0 ] concat K 
; ; N 1217 367 M 1949 367 I : [ 0.344 0 0 0.344 0 0 ] concat K 
; : 1215 0 14 740 rc N 1221 1 M 1221 732 I : [ 0.344 0 0 0.344 0 0 ] concat K 
; ; : 1939 0 13 740 rc N 1944 1 M 1944 732 I : [ 0.344 0 0 0.344 0 0 ] concat K 
; ; N 1217 6 M 1949 6 I : [ 0.344 0 0 0.344 0 0 ] concat K 
; N 1217 728 M 1949 728 I : [ 0.344 0 0 0.344 0 0 ] concat K 
; N 1321 209 M 1321 157 1362 115 1412 115 -c 1462 115 1503 157 1503 209 -c 1503 261 1462 302 1412 302 -c 1362 302 1321 261 1321 209 -c C 
1 0 0 1 scol  O 0 Lj 8 Lm 80 Lw : 1203 0 420 422 rc N 1321 209 M 1321 157 1362 115 1412 115 -c 1462 115 1503 157 1503 209 -c 1503 261 1462 302 1412 302 -c 1362 302 1321 261 1321 209 -c : [ 0.344 0 0 0.344 0 0 ] concat K 
; ; N 1685 209 M 1685 157 1726 115 1775 115 -c 1826 115 1866 157 1866 209 -c 1866 261 1826 302 1775 302 -c 1726 302 1685 261 1685 209 -c C 
 O : 1567 0 419 422 rc N 1685 209 M 1685 157 1726 115 1775 115 -c 1826 115 1866 157 1866 209 -c 1866 261 1826 302 1775 302 -c 1726 302 1685 261 1685 209 -c : [ 0.344 0 0 0.344 0 0 ] concat K 
; ; N 1321 555 M 1321 504 1362 462 1412 462 -c 1462 462 1503 504 1503 555 -c 1503 607 1462 649 1412 649 -c 1362 649 1321 607 1321 555 -c C 
 O : 1203 344 420 412 rc N 1321 555 M 1321 504 1362 462 1412 462 -c 1462 462 1503 504 1503 555 -c 1503 607 1462 649 1412 649 -c 1362 649 1321 607 1321 555 -c : [ 0.344 0 0 0.344 0 0 ] concat K 
; ; N 1685 555 M 1685 504 1726 462 1775 462 -c 1826 462 1866 504 1866 555 -c 1866 607 1826 649 1775 649 -c 1726 649 1685 607 1685 555 -c C 
 O : 1567 344 419 412 rc N 1685 555 M 1685 504 1726 462 1775 462 -c 1826 462 1866 504 1866 555 -c 1866 607 1826 649 1775 649 -c 1726 649 1685 607 1685 555 -c : [ 0.344 0 0 0.344 0 0 ] concat K 
; ; LH
(%%[Page: 1]%%) = 
%%PageTrailer

%%Trailer
%%BoundingBox: 0 0 528 91
%%DocumentNeededResources: 
%%DocumentSuppliedResources: 
%%+ procset Pscript_WinNT_ErrorHandler 5.0 0
%%+ procset Pscript_FatalError 5.0 0
%%+ procset Pscript_Win_Basic 5.0 0
%%+ procset Pscript_Win_Utils_L1 5.0 0
%%+ procset Pscript_Win_GdiObject 5.0 0
%%+ procset Pscript_Win_GdiObject_L1 5.0 0
Pscript_WinNT_Incr dup /terminate get exec
VMsave restore
%%Pages: 1
(%%[LastPage]%%) = 
%%EOF
