%!PS-Adobe-3.0
%%Title: 
%%Creator: PScript5.dll Version 5.2.2
%%CreationDate: 4/15/2018 17:14:12
%%For: liao
%%BoundingBox: (atend)
%%Pages: (atend)
%%Orientation: Portrait
%%PageOrder: Special
%%DocumentNeededResources: (atend)
%%DocumentSuppliedResources: (atend)
%%DocumentData: Clean7Bit
%%TargetDevice: () (52.3) 320
%%LanguageLevel: 1
%%EndComments

%%BeginDefaults
%%PageBoundingBox: 0 0 569 89
%%ViewingOrientation: 1 0 0 1
%%EndDefaults


%%BeginProlog
%%BeginResource: file Pscript_WinNT_ErrorHandler 5.0 0
/currentpacking where{pop/oldpack currentpacking def/setpacking where{pop false
setpacking}if}if/$brkpage 64 dict def $brkpage begin/prnt{dup type/stringtype
ne{=string cvs}if dup length 6 mul/tx exch def/ty 10 def currentpoint/toy exch
def/tox exch def 1 setgray newpath tox toy 2 sub moveto 0 ty rlineto tx 0
rlineto 0 ty neg rlineto closepath fill tox toy moveto 0 setgray show}bind def
/nl{currentpoint exch pop lmargin exch moveto 0 -10 rmoveto}def/=={/cp 0 def
typeprint nl}def/typeprint{dup type exec}readonly def/lmargin 72 def/rmargin 72
def/tprint{dup length cp add rmargin gt{nl/cp 0 def}if dup length cp add/cp
exch def prnt}readonly def/cvsprint{=string cvs tprint( )tprint}readonly def
/integertype{cvsprint}readonly def/realtype{cvsprint}readonly def/booleantype
{cvsprint}readonly def/operatortype{(--)tprint =string cvs tprint(-- )tprint}
readonly def/marktype{pop(-mark- )tprint}readonly def/dicttype{pop
(-dictionary- )tprint}readonly def/nulltype{pop(-null- )tprint}readonly def
/filetype{pop(-filestream- )tprint}readonly def/savetype{pop(-savelevel- )
tprint}readonly def/fonttype{pop(-fontid- )tprint}readonly def/nametype{dup
xcheck not{(/)tprint}if cvsprint}readonly def/stringtype{dup rcheck{(\()tprint
tprint(\))tprint}{pop(-string- )tprint}ifelse}readonly def/arraytype{dup rcheck
{dup xcheck{({)tprint{typeprint}forall(})tprint}{([)tprint{typeprint}forall(])
tprint}ifelse}{pop(-array- )tprint}ifelse}readonly def/packedarraytype{dup
rcheck{dup xcheck{({)tprint{typeprint}forall(})tprint}{([)tprint{typeprint}
forall(])tprint}ifelse}{pop(-packedarray- )tprint}ifelse}readonly def/courier
/Courier findfont 10 scalefont def end errordict/handleerror{systemdict begin
$error begin $brkpage begin newerror{/newerror false store vmstatus pop pop 0
ne{grestoreall}if errorname(VMerror)ne{showpage}if initgraphics courier setfont
lmargin 720 moveto errorname(VMerror)eq{userdict/ehsave known{clear userdict
/ehsave get restore 2 vmreclaim}if vmstatus exch pop exch pop PrtVMMsg}{
(ERROR: )prnt errorname prnt nl(OFFENDING COMMAND: )prnt/command load prnt
$error/ostack known{nl nl(STACK:)prnt nl nl $error/ostack get aload length{==}
repeat}if}ifelse systemdict/showpage get exec(%%[ Error: )print errorname
=print(; OffendingCommand: )print/command load =print( ]%%)= flush}if end end
end}dup 0 systemdict put dup 4 $brkpage put bind readonly put/currentpacking
where{pop/setpacking where{pop oldpack setpacking}if}if
%%EndResource
%%BeginProcSet: Pscript_Res_Emul 5.0 0
/defineresource where{pop}{userdict begin/defineresource{userdict/Resources 2
copy known{get begin}{15 dict dup begin put}ifelse exch readonly exch
currentdict 1 index known not{dup 30 dict def}if load 3 -1 roll 2 index put
end}bind readonly def/findresource{userdict/Resources get exch get exch get}
bind readonly def/resourceforall{pop pop pop pop}bind readonly def
/resourcestatus{userdict/Resources 2 copy known{get exch 2 copy known{get exch
known{0 -1 true}{false}ifelse}{pop pop pop false}ifelse}{pop pop pop pop false}
ifelse}bind readonly def end}ifelse
%%EndProcSet
userdict /Pscript_WinNT_Incr 230 dict dup begin put
%%BeginResource: file Pscript_FatalError 5.0 0
userdict begin/FatalErrorIf{{initgraphics findfont 1 index 0 eq{exch pop}{dup
length dict begin{1 index/FID ne{def}{pop pop}ifelse}forall/Encoding
{ISOLatin1Encoding}stopped{StandardEncoding}if def currentdict end
/ErrFont-Latin1 exch definefont}ifelse exch scalefont setfont counttomark 3 div
cvi{moveto show}repeat showpage quit}{cleartomark}ifelse}bind def end
%%EndResource
userdict begin/PrtVMMsg{vmstatus exch sub exch pop gt{[
(This job requires more memory than is available in this printer.)100 500
(Try one or more of the following, and then print again:)100 485
(For the output format, choose Optimize For Portability.)115 470
(In the Device Settings page, make sure the Available PostScript Memory is accurate.)
115 455(Reduce the number of fonts in the document.)115 440
(Print the document in parts.)115 425 12/Times-Roman[/GothicBBB-Medium-RKSJ-H
dup{findfont}stopped{cleartomark}{/FontName get eq{pop cleartomark[
<82B182CC83578387837582CD8CBB8DDD82B182CC8376838A8393835E82C59798977082C582AB82
E988C88FE382CC83818382838A82F0954B977682C682B582DC82B7814288C889BA82CC8A6590DD9
2E8>90 500<82CC88EA82C2814182DC82BD82CD82BB82CC916782DD8D8782ED82B982F08E7792
E882B582BD8CE381418376838A8393836782B592BC82B582C482DD82C482AD82BE82B382A28142>
90 485<A5506F73745363726970748376838D8370836583428356815B836782A982E7814183478
389815B82AA8C798CB882B782E982E682A482C98DC5934B89BB2082F0914991F082B782E98142>
90 455<A58366836F83438358834983768356838783938376838D8370836583428356815B83678
2CC209798977082C582AB82E98376838A8393835E83818382838A2082CC926C82AA90B382B582A2
82B182C682F08A6D944682B782E98142>90 440<A58368834C8385838183938367928682C58E6
7977082B382EA82C482A282E9837483488393836782CC909482F08CB882E782B78142>90 425
<A58368834C838583818393836782F095AA8A8482B582C48376838A8393836782B782E98142>90
410 10 0/GothicBBB-Medium-RKSJ-H}{cleartomark}ifelse}ifelse showpage
(%%[ PrinterError: Low Printer VM ]%%)= true FatalErrorIf}if}bind def end
version cvi 2016 ge{/VM?{pop}bind def}{/VM? userdict/PrtVMMsg get def}ifelse
105000 VM?
%%BeginResource: file Pscript_Win_Basic 5.0 0
/d/def load def/,/load load d/~/exch , d/?/ifelse , d/!/pop , d/`/begin , d/^
/index , d/@/dup , d/+/translate , d/$/roll , d/U/userdict , d/M/moveto , d/-
/rlineto , d/&/currentdict , d/:/gsave , d/;/grestore , d/F/false , d/T/true ,
d/N/newpath , d/E/end , d/Ac/arc , d/An/arcn , d/A/ashow , d/D/awidthshow , d/C
/closepath , d/V/div , d/O/eofill , d/L/fill , d/I/lineto , d/-c/curveto , d/-M
/rmoveto , d/+S/scale , d/Ji/setfont , d/Lc/setlinecap , d/Lj/setlinejoin , d
/Lw/setlinewidth , d/Lm/setmiterlimit , d/sd/setdash , d/S/show , d/LH/showpage
, d/K/stroke , d/W/widthshow , d/R/rotate , d/L2? false/languagelevel where{pop
languagelevel 2 ge{pop true}if}if d L2?{/xS/xshow , d/yS/yshow , d/zS/xyshow ,
d}if/b{bind d}bind d/bd{bind d}bind d/xd{~ d}bd/ld{, d}bd/bn/bind ld/lw/Lw ld
/lc/Lc ld/lj/Lj ld/sg/setgray ld/ADO_mxRot null d/self & d/OrgMx matrix
currentmatrix d/reinitialize{: OrgMx setmatrix[/TextInit/GraphInit/UtilsInit
counttomark{@ where{self eq}{F}?{cvx exec}{!}?}repeat cleartomark ;}b
/initialize{`{/Pscript_Win_Data where{!}{U/Pscript_Win_Data & put}?/ADO_mxRot ~
d/TextInitialised? F d reinitialize E}{U/Pscript_Win_Data 230 dict @ ` put
/ADO_mxRot ~ d/TextInitialised? F d reinitialize}?}b/terminate{!{& self eq
{exit}{E}?}loop E}b/suspend/terminate , d/resume{` Pscript_Win_Data `}b U `
/lucas 21690 d/featurebegin{countdictstack lucas[}b/featurecleanup{stopped
{cleartomark @ lucas eq{! exit}if}loop countdictstack ~ sub @ 0 gt{{E}repeat}
{!}?}b E/snap{transform 0.25 sub round 0.25 add ~ 0.25 sub round 0.25 add ~
itransform}b/dsnap{dtransform round ~ round ~ idtransform}b/nonzero_round{@ 0.5
ge{round}{@ -0.5 lt{round}{0 ge{1}{-1}?}?}?}b/nonzero_dsnap{dtransform
nonzero_round ~ nonzero_round ~ idtransform}b U<04>cvn{}put/rr{1 ^ 0 - 0 ~ -
neg 0 - C}b/irp{4 -2 $ + +S fx 4 2 $ M 1 ^ 0 - 0 ~ - neg 0 -}b/rp{4 2 $ M 1 ^ 0
- 0 ~ - neg 0 -}b/solid{[]0 sd}b/g{@ not{U/DefIf_save save put}if U/DefIf_bool
2 ^ put}b/DefIf_El{if U/DefIf_bool get not @{U/DefIf_save get restore}if}b/e
{DefIf_El !}b/UDF{L2?{undefinefont}{!}?}b/UDR{L2?{undefineresource}{! !}?}b
/freeVM{/Courier findfont[40 0 0 -40 0 0]makefont Ji 2 vmreclaim}b/hfRedefFont
{findfont @ length dict `{1 ^/FID ne{d}{! !}?}forall & E @ ` ~{/CharStrings 1
dict `/.notdef 0 d & E d}if/Encoding 256 array 0 1 255{1 ^ ~/.notdef put}for d
E definefont !}bind d/hfMkCIDFont{/CIDFont findresource @ length 2 add dict `{1
^ @/FID eq ~ @/XUID eq ~/UIDBase eq or or{! !}{d}?}forall/CDevProc ~ d/Metrics2
16 dict d/CIDFontName 1 ^ d & E 1 ^ ~/CIDFont defineresource ![~]composefont !}
bind d
%%EndResource
%%BeginResource: file Pscript_Win_Utils_L1 5.0 0
/rf{N rp L}b/fx{1 1 dtransform @ 0 ge{1 sub 1}{1 add -0.25}? 3 -1 $ @ 0 ge{1
sub 1}{1 add -0.25}? 3 1 $ 4 1 $ idtransform 4 -2 $ idtransform}b/BZ{4 -2 $
snap + +S fx rf}b/rs{N rp C K}b/rc{N rp clip N}b/UtilsInit{}b/setcolorspace{!}b
/scol{[/setgray/setrgbcolor/setcolor/setcmykcolor/setcolor/setgray]~ get cvx
exec}b/colspRefresh{}b/AddFontInfoBegin{/FontInfo 8 dict @ `}bind d/AddFontInfo
{/GlyphNames2Unicode 16 dict d/GlyphNames2HostCode 16 dict d}bind d
/AddFontInfoEnd{E d}bind d
%%EndResource
end
%%EndProlog

%%BeginSetup
statusdict begin (%%[ ProductName: ) print product print ( ]%%)= flush end
[ 1 0 0 1 0 0 ] false Pscript_WinNT_Incr dup /initialize get exec
featurebegin{
%%BeginNonPPDFeature: JobTimeout 0
0 /languagelevel where{pop languagelevel}{1}ifelse 2 ge{1 dict dup/JobTimeout  4 -1 roll put setuserparams}{statusdict/setjobtimeout get exec}ifelse
%%EndNonPPDFeature
}featurecleanup

featurebegin{
%%BeginNonPPDFeature: WaitTimeout 300
300 /languagelevel where{pop languagelevel}{1}ifelse 2 ge{1 dict dup/WaitTimeout 4 -1 roll put setuserparams}{statusdict/waittimeout 3 -1 roll put}ifelse
%%EndNonPPDFeature
}featurecleanup

featurebegin{
%%BeginFeature: *Resolution 600dpi

%%EndFeature
}featurecleanup
featurebegin{
%%BeginFeature: *CustomPageSize
 
569 89 0 0 1 exch pop statusdict /setpageparams get exec
%%EndFeature
}featurecleanup
1 setlinecap 1 setlinejoin
/mysetup [ 72 600 V 0 0 -72 600 V 0 88.72441 ] def 
%%EndSetup

userdict begin /VMsave save def end
%%Page: 1 1
%%PageBoundingBox: 0 0 569 89
%%EndPageComments
%%BeginPageSetup
/DeviceRGB dup setcolorspace /colspABC exch def
mysetup concat colspRefresh
%%EndPageSetup

Pscript_WinNT_Incr begin
%%BeginResource: file Pscript_Win_GdiObject 5.0 0
/SavedCTM null d/CTMsave{/SavedCTM SavedCTM currentmatrix d}b/CTMrestore
{SavedCTM setmatrix}b/mp null d/ADO_mxRot null d/GDIHMatrix null d
/GDIHPatternDict 22 dict d GDIHPatternDict `/PatternType 1 d/PaintType 2 d/Reps
L2?{1}{5}? d/XStep 8 Reps mul d/YStep XStep d/BBox[0 0 XStep YStep]d/TilingType
1 d/PaintProc{` 1 Lw[]0 sd PaintData , exec E}b/FGnd null d/BGnd null d
/HS_Horizontal{horiz}b/HS_Vertical{vert}b/HS_FDiagonal{fdiag}b/HS_BDiagonal
{biag}b/HS_Cross{horiz vert}b/HS_DiagCross{fdiag biag}b/MaxXYStep XStep YStep
gt{XStep}{YStep}? d/horiz{Reps{0 4 M XStep 0 - 0 8 +}repeat 0 -8 Reps mul + K}b
/vert{Reps{4 0 M 0 YStep - 8 0 +}repeat 0 -8 Reps mul + K}b/biag{Reps{0 0 M
MaxXYStep @ - 0 YStep neg M MaxXYStep @ - 0 8 +}repeat 0 -8 Reps mul + 0 YStep
M 8 8 - K}b/fdiag{Reps{0 0 M MaxXYStep @ neg - 0 YStep M MaxXYStep @ neg - 0 8
+}repeat 0 -8 Reps mul + MaxXYStep @ M 8 -8 - K}b E/makehatch{4 -2 $/yOrg ~ d
/xOrg ~ d GDIHPatternDict/PaintData 3 -1 $ put CTMsave GDIHMatrix setmatrix
GDIHPatternDict matrix xOrg yOrg + mp CTMrestore ~ U ~ 2 ^ put}b/h0{/h0
/HS_Horizontal makehatch}b/h1{/h1/HS_Vertical makehatch}b/h2{/h2/HS_FDiagonal
makehatch}b/h3{/h3/HS_BDiagonal makehatch}b/h4{/h4/HS_Cross makehatch}b/h5{/h5
/HS_DiagCross makehatch}b/GDIBWPatternMx null d/pfprep{save 8 1 $
/PatternOfTheDay 8 1 $ GDIBWPatternDict `/yOrg ~ d/xOrg ~ d/PaintData ~ d/yExt
~ d/Width ~ d/BGnd ~ d/FGnd ~ d/Height yExt RepsV mul d/mx[Width 0 0 Height 0
0]d E build_pattern ~ !}b/pfbf{/fEOFill ~ d pfprep hbf fEOFill{O}{L}? restore}b
/GraphInit{GDIHMatrix null eq{/SavedCTM matrix d : ADO_mxRot concat 0 0 snap +
: 0.48 @ GDIHPatternDict ` YStep mul ~ XStep mul ~ nonzero_dsnap YStep V ~
XStep V ~ E +S/GDIHMatrix matrix currentmatrix readonly d ; : 0.24 -0.24 +S
GDIBWPatternDict ` Width Height E nonzero_dsnap +S/GDIBWPatternMx matrix
currentmatrix readonly d ; ;}if}b
%%EndResource
%%BeginResource: file Pscript_Win_GdiObject_L1 5.0 0
/GDIBWPatternDict 25 dict @ `/PatternType 1 d/PaintType 2 d/RepsV 6 d/RepsH 5 d
/BBox[0 0 RepsH 1]d/TilingType 1 d/XStep 1 d/YStep 1 d/Height 8 RepsV mul d
/Width 8 d/mx[Width 0 0 Height neg 0 Height]d/FGnd null d/BGnd null d
/SetBGndFGnd{}b/PaintProc{` SetBGndFGnd RepsH{Width Height F mx PaintData
imagemask Width 0 +}repeat E}b E d/GDIpattfill{@ ` BGnd null ne PaintType 2 eq
and{: BGnd aload ! scol fEOFill{O}{L}? ; FGnd aload ! U/iCol 2 ^ put @ 0 eq{!
2}{@ 1 eq ~ 2 eq or{4}{5}?}? -1 $}if E @ patterncalc : 4 ^/PaintType get 2 eq
{iCol 0 eq{6 -1 $}if iCol 1 eq iCol 2 eq or{8 -3 $}if iCol 3 eq iCol 4 eq or{9
-4 $}if iCol scol}if fEOFill{eoclip}{clip}? N patternfill ; N}b/hbf
{GDIpattfill}b/hfMain{/fEOFill ~ d ~/iCol ~ d GDIpattfill}b/hf{: hfMain ;}b
/mpstr 1 string d/mp{~ @ length 12 add dict copy `/PatternCTM matrix
currentmatrix d/PatternMatrix ~ d/PatWidth XStep mpstr length mul d/PatHeight
YStep d/FontType 3 d/Encoding 256 array d 3 string 0 1 255{Encoding ~ @ 3 ^ cvs
cvn put}for !/FontMatrix matrix d/FontBBox BBox d/BuildChar{! @ ` XStep 0
FontBBox aload ! setcachedevice/PaintProc , E : exec ;}b & E ~ @ 3 -1 $
definefont}b/build_pattern{: GDIBWPatternDict ` Width Height E dsnap +S
/GDIBWPatternMx matrix currentmatrix d ; CTMsave GDIBWPatternMx setmatrix
GDIBWPatternDict @ ` xOrg yOrg E matrix + mp CTMrestore}b/patterncalc{` :
PatternCTM setmatrix PatternMatrix concat BBox aload ! ! ! + pathbbox ;
PatHeight V ceiling 4 1 $ PatWidth V ceiling 4 1 $ PatHeight V floor 4 1 $
PatWidth V floor 4 1 $ 2 ^ sub cvi abs ~ 3 ^ sub cvi abs ~ 4 2 $ PatHeight mul
~ PatWidth mul ~ E}b/patternfill{5 -1 $ @ ` Ji PatternCTM setmatrix
PatternMatrix concat 0 2 ^ 2 ^ M 0 1 mpstr length 1 sub{1 ^ mpstr 3 1 $ put}for
! 2 ^{currentpoint 5 ^{mpstr S}repeat YStep add M}repeat ! ! ! ! E}b/pbf{: 14
dict `/fGray ~ d/fEOFill ~ d/yOrg ~ d/xOrg ~ d/PaintData ~ d/OutputBPP ~ d
/Height ~ d/Width ~ d/mx xOrg yOrg matrix + d fGray{/PaintProc{` Width Height
OutputBPP mx PaintData image E}b}{/PaintProc{` Width Height 8 mx PaintData F
OutputBPP 8 idiv colorimage E}b}? pathbbox fEOFill{eoclip}{clip}?/Top ~ d/Right
~ d/Bottom ~ d/Left ~ d Top Height neg Bottom 1 sub{Left Width Right 1 sub{1 ^
2 copy + & PaintProc neg ~ neg ~ +}bind for !}bind for E ;}b
%%EndResource
end reinitialize
N 3 4 M 3 365 I 365 365 I 365 4 I 3 4 I C 
0.918 0.938 0.969 1 scol  O N 365 4 M 365 365 I 726 365 I 726 4 I 365 4 I C 
 O N 3 365 M 3 727 I 365 727 I 365 365 I 3 365 I C 
 O N 365 365 M 365 727 I 726 727 I 726 365 I 365 365 I C 
 O 0 0 0 1 scol 1 Lj 0 Lc 27 Lw solid : 359 0 13 739 rc N 365 0 M 365 731 I : [ 0.344 0 0 0.344 0 0 ] concat K 
; ; : 0 360 739 13 rc N -2 365 M 731 365 I : [ 0.344 0 0 0.344 0 0 ] concat K 
; ; : 0 0 11 739 rc N 3 0 M 3 731 I : [ 0.344 0 0 0.344 0 0 ] concat K 
; ; : 721 0 13 739 rc N 726 0 M 726 731 I : [ 0.344 0 0 0.344 0 0 ] concat K 
; ; : 0 0 739 12 rc N -2 4 M 731 4 I : [ 0.344 0 0 0.344 0 0 ] concat K 
; ; : 0 721 739 13 rc N -2 727 M 731 727 I : [ 0.344 0 0 0.344 0 0 ] concat K 
; ; N 104 209 M 104 157 145 115 195 115 -c 245 115 286 157 286 209 -c 286 261 245 302 195 302 -c 145 302 104 261 104 209 -c C 
1 0 0 1 scol  O 0 Lj 8 Lm 80 Lw : 0 0 406 422 rc N 104 209 M 104 157 145 115 195 115 -c 245 115 286 157 286 209 -c 286 261 245 302 195 302 -c 145 302 104 261 104 209 -c : [ 0.344 0 0 0.344 0 0 ] concat K 
; ; N 468 209 M 468 157 509 115 559 115 -c 609 115 649 157 649 209 -c 649 261 609 302 559 302 -c 509 302 468 261 468 209 -c C 
 O : 350 0 419 422 rc N 468 209 M 468 157 509 115 559 115 -c 609 115 649 157 649 209 -c 649 261 609 302 559 302 -c 509 302 468 261 468 209 -c : [ 0.344 0 0 0.344 0 0 ] concat K 
; ; N 104 556 M 104 504 145 462 195 462 -c 245 462 286 504 286 556 -c 286 608 245 649 195 649 -c 145 649 104 608 104 556 -c C 
 O : 0 344 406 395 rc N 104 556 M 104 504 145 462 195 462 -c 245 462 286 504 286 556 -c 286 608 245 649 195 649 -c 145 649 104 608 104 556 -c : [ 0.344 0 0 0.344 0 0 ] concat K 
; ; N 468 556 M 468 504 509 462 559 462 -c 609 462 649 504 649 556 -c 649 608 609 649 559 649 -c 509 649 468 608 468 556 -c C 
 O : 350 344 419 395 rc N 468 556 M 468 504 509 462 559 462 -c 609 462 649 504 649 556 -c 649 608 609 649 559 649 -c 509 649 468 608 468 556 -c : [ 0.344 0 0 0.344 0 0 ] concat K 
; ; N 1105 4 M 1105 365 I 1467 365 I 1467 4 I 1105 4 I C 
0.918 0.938 0.969 1 scol  O N 1467 4 M 1467 365 I 1829 365 I 1829 4 I 1467 4 I C 
 O N 1829 4 M 1829 365 I 2190 365 I 2190 4 I 1829 4 I C 
 O N 2190 4 M 2190 365 I 2552 365 I 2552 4 I 2190 4 I C 
 O N 1105 365 M 1105 727 I 1467 727 I 1467 365 I 1105 365 I C 
 O N 1467 365 M 1467 727 I 1829 727 I 1829 365 I 1467 365 I C 
 O N 1829 365 M 1829 727 I 2190 727 I 2190 365 I 1829 365 I C 
 O N 2190 365 M 2190 727 I 2552 727 I 2552 365 I 2190 365 I C 
 O 0 0 0 1 scol 1 Lj 10 Lm 27 Lw : 1461 0 13 739 rc N 1467 0 M 1467 731 I : [ 0.344 0 0 0.344 0 0 ] concat K 
; ; : 1823 0 13 739 rc N 1829 0 M 1829 731 I : [ 0.344 0 0 0.344 0 0 ] concat K 
; ; : 2184 0 14 739 rc N 2190 0 M 2190 731 I : [ 0.344 0 0 0.344 0 0 ] concat K 
; ; N 1101 365 M 2557 365 I : [ 0.344 0 0 0.344 0 0 ] concat K 
; : 1099 0 14 739 rc N 1105 0 M 1105 731 I : [ 0.344 0 0 0.344 0 0 ] concat K 
; ; : 2546 0 13 739 rc N 2552 0 M 2552 731 I : [ 0.344 0 0 0.344 0 0 ] concat K 
; ; : 1095 0 1469 12 rc N 1101 4 M 2557 4 I : [ 0.344 0 0 0.344 0 0 ] concat K 
; ; N 1101 727 M 2557 727 I : [ 0.344 0 0 0.344 0 0 ] concat K 
; N 1206 187 M 1206 135 1247 93 1296 93 -c 1347 93 1387 135 1387 187 -c 1387 239 1347 280 1296 280 -c 1247 280 1206 239 1206 187 -c C 
1 0 0 1 scol  O 0 Lj 8 Lm 80 Lw : 1088 0 419 400 rc N 1206 187 M 1206 135 1247 93 1296 93 -c 1347 93 1387 135 1387 187 -c 1387 239 1347 280 1296 280 -c 1247 280 1206 239 1206 187 -c : [ 0.344 0 0 0.344 0 0 ] concat K 
; ; N 1569 187 M 1569 135 1610 93 1660 93 -c 1710 93 1751 135 1751 187 -c 1751 239 1710 280 1660 280 -c 1610 280 1569 239 1569 187 -c C 
 O : 1451 0 420 400 rc N 1569 187 M 1569 135 1610 93 1660 93 -c 1710 93 1751 135 1751 187 -c 1751 239 1710 280 1660 280 -c 1610 280 1569 239 1569 187 -c : [ 0.344 0 0 0.344 0 0 ] concat K 
; ; N 1927 187 M 1927 135 1968 93 2018 93 -c 2068 93 2109 135 2109 187 -c 2109 239 2068 280 2018 280 -c 1968 280 1927 239 1927 187 -c C 
 O : 1809 0 420 400 rc N 1927 187 M 1927 135 1968 93 2018 93 -c 2068 93 2109 135 2109 187 -c 2109 239 2068 280 2018 280 -c 1968 280 1927 239 1927 187 -c : [ 0.344 0 0 0.344 0 0 ] concat K 
; ; N 2290 187 M 2290 135 2331 93 2381 93 -c 2432 93 2472 135 2472 187 -c 2472 239 2432 280 2381 280 -c 2331 280 2290 239 2290 187 -c C 
 O : 2172 0 420 400 rc N 2290 187 M 2290 135 2331 93 2381 93 -c 2432 93 2472 135 2472 187 -c 2472 239 2432 280 2381 280 -c 2331 280 2290 239 2290 187 -c : [ 0.344 0 0 0.344 0 0 ] concat K 
; ; N 1206 534 M 1206 482 1247 440 1296 440 -c 1347 440 1387 482 1387 534 -c 1387 586 1347 627 1296 627 -c 1247 627 1206 586 1206 534 -c C 
 O : 1088 322 419 417 rc N 1206 534 M 1206 482 1247 440 1296 440 -c 1347 440 1387 482 1387 534 -c 1387 586 1347 627 1296 627 -c 1247 627 1206 586 1206 534 -c : [ 0.344 0 0 0.344 0 0 ] concat K 
; ; N 1569 534 M 1569 482 1610 440 1660 440 -c 1710 440 1751 482 1751 534 -c 1751 586 1710 627 1660 627 -c 1610 627 1569 586 1569 534 -c C 
 O : 1451 322 420 417 rc N 1569 534 M 1569 482 1610 440 1660 440 -c 1710 440 1751 482 1751 534 -c 1751 586 1710 627 1660 627 -c 1610 627 1569 586 1569 534 -c : [ 0.344 0 0 0.344 0 0 ] concat K 
; ; N 1927 534 M 1927 482 1968 440 2018 440 -c 2068 440 2109 482 2109 534 -c 2109 586 2068 627 2018 627 -c 1968 627 1927 586 1927 534 -c C 
 O : 1809 322 420 417 rc N 1927 534 M 1927 482 1968 440 2018 440 -c 2068 440 2109 482 2109 534 -c 2109 586 2068 627 2018 627 -c 1968 627 1927 586 1927 534 -c : [ 0.344 0 0 0.344 0 0 ] concat K 
; ; N 2290 534 M 2290 482 2331 440 2381 440 -c 2432 440 2472 482 2472 534 -c 2472 586 2432 627 2381 627 -c 2331 627 2290 586 2290 534 -c C 
 O : 2172 322 420 417 rc N 2290 534 M 2290 482 2331 440 2381 440 -c 2432 440 2472 482 2472 534 -c 2472 586 2432 627 2381 627 -c 2331 627 2290 586 2290 534 -c : [ 0.344 0 0 0.344 0 0 ] concat K 
; ; N 4006 4 M 4006 365 I 4368 365 I 4368 4 I 4006 4 I C 
0.918 0.938 0.969 1 scol  O N 4368 4 M 4368 365 I 4729 365 I 4729 4 I 4368 4 I C 
 O N 4006 365 M 4006 727 I 4368 727 I 4368 365 I 4006 365 I C 
 O N 4368 365 M 4368 727 I 4729 727 I 4729 365 I 4368 365 I C 
 O 0 0 0 1 scol 1 Lj 10 Lm 27 Lw : 4362 0 13 739 rc N 4368 0 M 4368 731 I : [ 0.344 0 0 0.344 0 0 ] concat K 
; ; : 3996 360 743 13 rc N 4001 365 M 4734 365 I : [ 0.344 0 0 0.344 0 0 ] concat K 
; ; : 4000 0 14 739 rc N 4006 0 M 4006 731 I : [ 0.344 0 0 0.344 0 0 ] concat K 
; ; : 4724 0 13 739 rc N 4729 0 M 4729 731 I : [ 0.344 0 0 0.344 0 0 ] concat K 
; ; : 3996 0 743 12 rc N 4001 4 M 4734 4 I : [ 0.344 0 0 0.344 0 0 ] concat K 
; ; : 3996 721 743 13 rc N 4001 727 M 4734 727 I : [ 0.344 0 0 0.344 0 0 ] concat K 
; ; N 4108 209 M 4108 157 4149 115 4199 115 -c 4249 115 4290 157 4290 209 -c 4290 261 4249 302 4199 302 -c 4149 302 4108 261 4108 209 -c C 
1 0 0 1 scol  O 0 Lj 8 Lm 80 Lw : 3990 0 420 422 rc N 4108 209 M 4108 157 4149 115 4199 115 -c 4249 115 4290 157 4290 209 -c 4290 261 4249 302 4199 302 -c 4149 302 4108 261 4108 209 -c : [ 0.344 0 0 0.344 0 0 ] concat K 
; ; N 4471 209 M 4471 157 4512 115 4562 115 -c 4612 115 4653 157 4653 209 -c 4653 261 4612 302 4562 302 -c 4512 302 4471 261 4471 209 -c C 
 O : 4353 0 386 422 rc N 4471 209 M 4471 157 4512 115 4562 115 -c 4612 115 4653 157 4653 209 -c 4653 261 4612 302 4562 302 -c 4512 302 4471 261 4471 209 -c : [ 0.344 0 0 0.344 0 0 ] concat K 
; ; N 2931 4 M 2931 365 I 3292 365 I 3292 4 I 2931 4 I C 
0.918 0.938 0.969 1 scol  O N 3292 4 M 3292 365 I 3654 365 I 3654 4 I 3292 4 I C 
 O N 2931 365 M 2931 727 I 3292 727 I 3292 365 I 2931 365 I C 
 O N 3292 365 M 3292 727 I 3654 727 I 3654 365 I 3292 365 I C 
 O 0 0 0 1 scol 1 Lj 10 Lm 27 Lw : 3287 0 13 739 rc N 3292 0 M 3292 731 I : [ 0.344 0 0 0.344 0 0 ] concat K 
; ; N 2926 365 M 3659 365 I : [ 0.344 0 0 0.344 0 0 ] concat K 
; : 2925 0 13 739 rc N 2931 0 M 2931 731 I : [ 0.344 0 0 0.344 0 0 ] concat K 
; ; : 3648 0 13 739 rc N 3654 0 M 3654 731 I : [ 0.344 0 0 0.344 0 0 ] concat K 
; ; : 2920 0 746 12 rc N 2926 4 M 3659 4 I : [ 0.344 0 0 0.344 0 0 ] concat K 
; ; N 2926 727 M 3659 727 I : [ 0.344 0 0 0.344 0 0 ] concat K 
; N 3034 209 M 3034 157 3075 115 3125 115 -c 3175 115 3216 157 3216 209 -c 3216 261 3175 302 3125 302 -c 3075 302 3034 261 3034 209 -c C 
1 0 0 1 scol  O 0 Lj 8 Lm 80 Lw : 2916 0 420 422 rc N 3034 209 M 3034 157 3075 115 3125 115 -c 3175 115 3216 157 3216 209 -c 3216 261 3175 302 3125 302 -c 3075 302 3034 261 3034 209 -c : [ 0.344 0 0 0.344 0 0 ] concat K 
; ; N 3034 556 M 3034 504 3075 462 3125 462 -c 3175 462 3216 504 3216 556 -c 3216 608 3175 649 3125 649 -c 3075 649 3034 608 3034 556 -c C 
 O : 2916 344 420 395 rc N 3034 556 M 3034 504 3075 462 3125 462 -c 3175 462 3216 504 3216 556 -c 3216 608 3175 649 3125 649 -c 3075 649 3034 608 3034 556 -c : [ 0.344 0 0 0.344 0 0 ] concat K 
; ; LH
(%%[Page: 1]%%) = 
%%PageTrailer

%%Trailer
%%BoundingBox: 0 0 569 89
%%DocumentNeededResources: 
%%DocumentSuppliedResources: 
%%+ procset Pscript_WinNT_ErrorHandler 5.0 0
%%+ procset Pscript_FatalError 5.0 0
%%+ procset Pscript_Win_Basic 5.0 0
%%+ procset Pscript_Win_Utils_L1 5.0 0
%%+ procset Pscript_Win_GdiObject 5.0 0
%%+ procset Pscript_Win_GdiObject_L1 5.0 0
Pscript_WinNT_Incr dup /terminate get exec
VMsave restore
%%Pages: 1
(%%[LastPage]%%) = 
%%EOF
